…
* `string = "gdp"`: 用于搜索的正则表达式  
* `field`= "name": 搜索域，可选 “indicator”（编码）、“name”（名称）、“discription”（详细描述）、“sourceDatabase” 和 “sourceOrganization” （来源数据库或组织）  
* `short = TRUE`：`WDIsearch()`默认只返回匹配指标的编码和名称，`short = FSLE` 同时返回详细描述和来源


如在名称域内中搜索与二氧化碳相关的指标：  


```r
# the result of WDIsearch() is a 2D matrix
WDIsearch("CO2", short = F) %>% 
  as_tibble() 
#> # A tibble: 45 x 5
#>   indicator   name       description       sourceDatabase  sourceOrganization   
#>   <chr>       <chr>      <chr>             <chr>           <chr>                
#> 1 EN.ATM.CO2~ "CO2 emis~ "Carbon dioxide ~ World Developm~ "Carbon Dioxide Info~
#> 2 EN.ATM.CO2~ "CO2 emis~ "Carbon dioxide ~ World Developm~ "Carbon Dioxide Info~
#> 3 EN.ATM.CO2~ "CO2 emis~ "Carbon dioxide ~ World Developm~ "Carbon Dioxide Info~
#> 4 EN.ATM.CO2~ "CO2 emis~ "Carbon dioxide ~ World Developm~ "Carbon Dioxide Info~
#> 5 EN.ATM.CO2~ "CO2 emis~ "Carbon dioxide ~ World Developm~ "Carbon Dioxide Info~
#> 6 EN.ATM.CO2~ "CO2 emis~ ""                WDI Database A~ ""                   
#> # ... with 39 more rows
```


改变搜索域： 


```r
WDIsearch(string = "mortality", field = "description", short = F) %>%
  as_tibble()
#> # A tibble: 383 x 5
#>   indicator  name         description      sourceDatabase  sourceOrganization   
#>   <chr>      <chr>        <chr>            <chr>           <chr>                
#> 1 5.51.01.0~ Maternal he~ Births attended~ Statistical Ca~ World Development In~
#> 2 5.51.01.0~ Immunization The proportion ~ Statistical Ca~ World Development In~
#> 3 5.51.01.0~ Child morta~ Under-five mort~ Statistical Ca~ World Development In~
#> 4 PRJ.POP.1~ Wittgenstei~ Total populatio~ Education Stat~ Wittgenstein Centre ~
#> 5 PRJ.POP.1~ Wittgenstei~ Total populatio~ Education Stat~ Wittgenstein Centre ~
#> 6 PRJ.POP.1~ Wittgenstei~ Total populatio~ Education Stat~ Wittgenstein Centre ~
#> # ... with 377 more rows
```
…
* `country`:  筛选国家或地区。使用 “ISO 3166-1” 两位字母编码，具体可见 `mapdata::iso3166`。（中国 CN, 美国 US，德国 DE，日本 JP，英国 GB）
* `indicator`: 指标的编码。具名向量可以在重命名该指标  
* `start` 和 `end`：时间序列的起始和结束。默认为 1950 年和今年  
* `extra = FALSE`： 若 `extra = RTUE`，返回首都经纬度、地区、收入水平等更多信息  




```r
WDI(indicator = "5.51.01.03.mortal", country = c("US", "CN"),
    start = 2005,
    end = 2015) %>% 
  as_tibble() 
#> # A tibble: 11 x 4
#>   iso2c country `5.51.01.03.mortal`  year
#>   <chr> <chr>                 <dbl> <int>
#> 1 CN    China                     1  2015
#> 2 CN    China                     1  2014
#> 3 CN    China                     1  2013
#> 4 CN    China                     1  2012
#> 5 CN    China                     1  2011
#> 6 CN    China                     1  2010
#> # ... with 5 more rows

# renaming and extra = TRUE
WDI(indicator = c(child_motality = "5.51.01.03.mortal"),  country = c("US", "CN"),
    start = 2005,
    end = 2015,
    extra = TRUE) %>% 
  as_tibble() 
#> # A tibble: 11 x 11
#>   iso2c country child_motality  year iso3c region capital longitude latitude
#>   <chr> <chr>            <dbl> <int> <fct> <fct>  <fct>   <fct>     <fct>   
#> 1 CN    China                1  2015 CHN   East ~ Beijing 116.286   40.0495 
#> 2 CN    China                1  2014 CHN   East ~ Beijing 116.286   40.0495 
#> 3 CN    China                1  2013 CHN   East ~ Beijing 116.286   40.0495 
#> 4 CN    China                1  2012 CHN   East ~ Beijing 116.286   40.0495 
#> 5 CN    China                1  2011 CHN   East ~ Beijing 116.286   40.0495 
#> 6 CN    China                1  2010 CHN   East ~ Beijing 116.286   40.0495 
#> # ... with 5 more rows, and 2 more variables: income <fct>, lending <fct>
```
…
