…
sjmisc

https://strengejacke.github.io/sjmisc/articles/exploringdatasets.html  


```r
library(sjmisc)
```


```r
data(efc)
(efc <- efc %>% as_tibble())
#> # A tibble: 908 x 26
#>   c12hour e15relat e16sex e17age e42dep c82cop1 c83cop2 c84cop3 c85cop4 c86cop5
#>     <dbl>    <dbl>  <dbl>  <dbl>  <dbl>   <dbl>   <dbl>   <dbl>   <dbl>   <dbl>
#> 1      16        2      2     83      3       3       2       2       2       1
#> 2     148        2      2     88      3       3       3       3       3       4
#> 3      70        1      2     82      3       2       2       1       4       1
#> 4     168        1      2     67      4       4       1       3       1       1
#> 5     168        2      2     84      4       3       2       1       2       2
#> 6      16        2      2     85      4       2       2       3       3       3
#> # ... with 902 more rows, and 16 more variables: c87cop6 <dbl>, c88cop7 <dbl>,
#> #   c89cop8 <dbl>, c90cop9 <dbl>, c160age <dbl>, c161sex <dbl>, c172code <dbl>,
#> #   c175empl <dbl>, barthtot <dbl>, neg_c_7 <dbl>, pos_v_4 <dbl>, quol_5 <dbl>,
#> #   resttotn <dbl>, tot_sc_e <dbl>, n4pstu <dbl>, nur_pst <dbl>
```
…
`chop()`


```r
chopped <- chop(x, breaks = -5:5)

chopped %>% table()
#> .
#> [-3, -2) [-2, -1)  [-1, 0)   [0, 1)   [1, 2)   [3, 4) 
#>        3       15       27       38       16        1

# chop() returns a factor
tibble(x, chopped)
#> # A tibble: 100 x 2
#>         x chopped 
#>     <dbl> <fct>   
#> 1 -0.422  [-1, 0) 
#> 2  0.0569 [0, 1)  
#> 3  0.711  [0, 1)  
#> 4 -1.59   [-2, -1)
#> 5  0.597  [0, 1)  
#> 6  1.22   [1, 2)  
#> # ... with 94 more rows
```

If data is beyond the limits of `breaks`, they will be extended automatically, unless `extend = FALSE`, and values beyond the bounds will be converted to `NA`:  


```r
chopped <- chop(x, breaks = -1:1, extend = FALSE)
tibble(x, chopped)
#> # A tibble: 100 x 2
#>         x chopped
#>     <dbl> <fct>  
#> 1 -0.422  [-1, 0)
#> 2  0.0569 [0, 1] 
#> 3  0.711  [0, 1] 
#> 4 -1.59   <NA>   
#> 5  0.597  [0, 1] 
#> 6  1.22   <NA>   
#> # ... with 94 more rows
```

To chop a single number into a separate category, put the number twice in `breaks`:


```r
x_zeros <- x 
x_zeros[1:5] <- 0

chopped <- chop(x_zeros, c(-1, 0, 0, 1))
tibble(x, chopped)
#> # A tibble: 100 x 2
#>         x chopped  
#>     <dbl> <fct>    
#> 1 -0.422  {0}      
#> 2  0.0569 {0}      
#> 3  0.711  {0}      
#> 4 -1.59   {0}      
#> 5  0.597  {0}      
#> 6  1.22   (1, 3.39]
#> # ... with 94 more rows
```
…
