5.3 Chaninge number of levels | R for data science: tidyverse and beyond
…
            R for data science: tidyverse and beyond

5.3 Chaninge number of levels

5.3.1 Lumping levels

To demonstrate how to lump multiple levels of a factor, we will start with fct_count() to count factor levels. It’s basically a variant of dplyr::count(), taking a factor (factor) as its first argument instead of a data frame, which makes it a nice function in mutate().

fct_count(starwars$skin_color, 
          sort = TRUE,  # sort descendantly
          prop = TRUE)  # compute the fraction of marginal table
#> # A tibble: 31 x 3
#>   f         n      p
#>   <fct> <int>  <dbl>
#> 1 fair     17 0.195 
#> 2 light    11 0.126 
#> 3 dark      6 0.0690
#> 4 green     6 0.0690
#> 5 grey      6 0.0690
#> 6 pale      5 0.0575
#> # ... with 25 more rows

skin_color has 31 levels overall, and the top 5 to 6 levels occupy more than 50% percent of occurence. In fact, there are 24 levels whose frequency is less than 3%.

fct_count(starwars$skin_color, prop = TRUE) %>%
  filter(p < 0.03)
#> # A tibble: 24 x 3
#>   f                       n      p
#>   <fct>               <int>  <dbl>
#> 1 blue                    2 0.0230
#> 2 blue, grey              2 0.0230
#> 3 brown mottle            1 0.0115
#> 4 brown, white            1 0.0115
#> 5 fair, green, yellow     1 0.0115
#> 6 gold                    1 0.0115
#> # ... with 18 more rows
…
forcats provides a family of functions that lumps together factor levels that meet some criteria into a new level “other”.

fct_lump_min(): lumps levels that appear fewer than min times

fct_lump_prop(): lumps levels that appear fewer than prop * n times

fct_lump_n(): lumps all levels except for the n most frequent (or least frequent if n < 0)

fct_lump_lowfreq() lumps together the least frequent levels, ensuring that “other” is still the smallest level.

# lump levels that appear fewer than 5 times into "other"
starwars %>% 
  mutate(skin_color = fct_lump_min(skin_color, min = 5)) %>% 
  count(skin_color, sort = TRUE)
#> # A tibble: 7 x 2
#>   skin_color     n
#>   <fct>      <int>
#> 1 Other         36
#> 2 fair          17
#> 3 light         11
#> 4 dark           6
#> 5 green          6
#> 6 grey           6
#> # ... with 1 more row
…
# preserve 5 least common levels
starwars %>%
  mutate(skin_color = fct_lump(skin_color, n = -5)) %>%
  count(skin_color, sort = TRUE)
#> # A tibble: 17 x 2
#>   skin_color              n
#>   <fct>               <int>
#> 1 Other                  71
#> 2 brown mottle            1
#> 3 brown, white            1
#> 4 fair, green, yellow     1
#> 5 gold                    1
#> 6 green-tan, brown        1
#> # ... with 11 more rows
…
fct_cross(fruit, color, keep_empty = TRUE)
#> [1] apple:green kiwi:green  apple:red   apple:green
#> Levels: apple:green kiwi:green apple:red kiwi:red

5.3.3 Dropping levels

有时候我们希望在数据中取出一个子集，这可能导致在子集中，因子在某些水平上的频次为 0，但 R 并不会自动舍弃舍弃频次为 0 的水平：

## 在原始数据汇总，hair_color共有12个水平
nlevels(factor(starwars$hair_color))
#> [1] 12

fct_count(starwars$hair_color)
#> # A tibble: 13 x 2
#>   f                 n
#>   <fct>         <int>
#> 1 auburn            1
#> 2 auburn, grey      1
#> 3 auburn, white     1
#> 4 black            13
#> 5 blond             3
#> 6 blonde            1
#> # ... with 7 more rows

## 筛选重量在70~135的角色，得到一个子集
(starwars_sub <- starwars %>%
  filter(between(mass, 70, 135)))
#> # A tibble: 34 x 13
#>   name  height  mass hair_color skin_color eye_color birth_year gender homeworld
#>   <chr>  <int> <dbl> <chr>      <chr>      <chr>          <dbl> <chr>  <chr>    
#> 1 Luke~    172    77 blond      fair       blue              19 male   Tatooine 
#> 2 C-3PO    167    75 <NA>       gold       yellow           112 <NA>   Tatooine 
#> 3 Owen~    178   120 brown, gr~ light      blue              52 male   Tatooine 
#> 4 Beru~    165    75 brown      light      blue              47 female Tatooine 
#> 5 Bigg~    183    84 black      light      brown             24 male   Tatooine 
#> 6 Obi-~    182    77 auburn, w~ fair       blue-gray         57 male   Stewjon  
#> # ... with 28 more rows, and 4 more variables: species <chr>, films <list>,
#> #   vehicles <list>, starships <list>

## 现在hair_color只在8个有效水平上有记录，但是总的水平个数没有改变 
nlevels(factor(starwars$hair_color))
#> [1] 12
fct_count(starwars_sub$hair_color)
#> # A tibble: 9 x 2
#>   f                 n
#>   <fct>         <int>
#> 1 auburn, white     1
#> 2 black             5
#> 3 blond             2
#> 4 brown             7
#> 5 brown, grey       1
#> 6 grey              1
#> # ... with 3 more rows
…
