4.1 Creating dates and times | R for data science: tidyverse and beyond
…
To create a date/time from this sort of input, usemake_date() for dates, or make_datetime() for date-times. Input vectors are silently recycled:

make_datetime(year = 1999, month = 12, day = 22, sec = c(10, 11))
#> [1] "1999-12-22 00:00:10 UTC" "1999-12-22 00:00:11 UTC"

This is useful when individual components of data / time is seprated across multiple columns, as in flights:

flights %>% 
  select(year, month, day, hour, minute) %>%
  mutate(departure = make_datetime(year = year, 
                                   month = month, 
                                   day = day, 
                                   hour = hour, 
                                   min = minute))
#> # A tibble: 336,776 x 6
#>    year month   day  hour minute departure          
#>   <int> <int> <int> <dbl>  <dbl> <dttm>             
#> 1  2013     1     1     5     15 2013-01-01 05:15:00
#> 2  2013     1     1     5     29 2013-01-01 05:29:00
#> 3  2013     1     1     5     40 2013-01-01 05:40:00
#> 4  2013     1     1     5     45 2013-01-01 05:45:00
#> 5  2013     1     1     6      0 2013-01-01 06:00:00
#> 6  2013     1     1     5     58 2013-01-01 05:58:00
#> # ... with 336,770 more rows

sec in make_datetime() is unassigned so it defualts to base level 0. This is also how make_date() workds

make_date(year = 2020, day = 20)
#> [1] "2020-01-20"
make_date(month = 12, day = 20)  # year starts in 1970
#> [1] "1970-12-20"

flights 中 hour 和 time 均是航班起飞时间的预计值。为了算出实际起飞、到达时间，我们需要使用 dep_time 和 arr_time 这两个变量，不过，它们同时包括了小时和分钟数：

flights %>% select(dep_time,
                   arr_time,
                   sched_dep_time,
                   sched_arr_time)
#> # A tibble: 336,776 x 4
#>   dep_time arr_time sched_dep_time sched_arr_time
#>      <int>    <int>          <int>          <int>
#> 1      517      830            515            819
#> 2      533      850            529            830
#> 3      542      923            540            850
#> 4      544     1004            545           1022
#> 5      554      812            600            837
#> 6      554      740            558            728
#> # ... with 336,770 more rows
…
(flights_dt <- flights %>%
    filter(!is.na(dep_time), !is.na(arr_time)) %>%
    mutate(
      dep_time = make_datetime_100(year, month, day, dep_time),
      arr_time = make_datetime_100(year, month, day, arr_time),
      sched_dep_time = make_datetime_100(year, month, day, sched_dep_time),
      sched_arr_time = make_datetime_100(year, month, day, sched_arr_time))  %>%
    select(origin,dest,ends_with("delay"), ends_with("time"))
)
#> # A tibble: 328,063 x 9
#>   origin dest  dep_delay arr_delay dep_time            sched_dep_time     
#>   <chr>  <chr>     <dbl>     <dbl> <dttm>              <dttm>             
#> 1 EWR    IAH           2        11 2013-01-01 05:17:00 2013-01-01 05:15:00
#> 2 LGA    IAH           4        20 2013-01-01 05:33:00 2013-01-01 05:29:00
#> 3 JFK    MIA           2        33 2013-01-01 05:42:00 2013-01-01 05:40:00
#> 4 JFK    BQN          -1       -18 2013-01-01 05:44:00 2013-01-01 05:45:00
#> 5 LGA    ATL          -6       -25 2013-01-01 05:54:00 2013-01-01 06:00:00
#> 6 EWR    ORD          -4        12 2013-01-01 05:54:00 2013-01-01 05:58:00
#> # ... with 328,057 more rows, and 3 more variables: arr_time <dttm>,
#> #   sched_arr_time <dttm>, air_time <dbl>
…
