…
`dplyr`'s design philosophy is to provide Enlgish-like verbs that do one thing at a time and to it well, so it is very user-friendly to new R users or non-programmers. But this requires more steps and code. The following chunks do the same thing in `dplyr` and `data.table` respectively


```r
library(data.table)


starwars <- dplyr::starwars
starwars %>% 
  filter(species == "Human") %>% 
  group_by(homeworld) %>% 
  summarise(mean_height = mean(height))
#> # A tibble: 16 x 2
#>   homeworld    mean_height
#>   <chr>              <dbl>
#> 1 Alderaan            176.
#> 2 Bespin              175 
#> 3 Bestine IV          180 
#> 4 Chandrila           150 
#> 5 Concord Dawn        183 
#> 6 Corellia            175 
#> # ... with 10 more rows
…
