…
# dplyr: Data transformation


 

**dplyr** 承担了 tidyverse 中最基本也最重要的数据处理、转换、分析功能(to my mind)。它的设计思想是发展处一套简洁、统一的数据操作语法(a grammar of data manipulation)，用英语中常见的动词命名操作数据的函数，并充分利用管道符 `%>%` 和更“现代”的数据框格式 `tibble` 增加代码可读性。

为了介绍 **dplyr** 中的基本数据操作。可以使用 `nycflights::flights`，这个数据集包含了 2013 年从纽约市处罚的所有 336776 次航班的信息。该数据来自于美国交通统计局。


```r
library(nycflights13)
flights
#> # A tibble: 336,776 x 19
#>    year month   day dep_time sched_dep_time dep_delay arr_time sched_arr_time
#>   <int> <int> <int>    <int>          <int>     <dbl>    <int>          <int>
#> 1  2013     1     1      517            515         2      830            819
#> 2  2013     1     1      533            529         4      850            830
#> 3  2013     1     1      542            540         2      923            850
#> 4  2013     1     1      544            545        -1     1004           1022
#> 5  2013     1     1      554            600        -6      812            837
#> 6  2013     1     1      554            558        -4      740            728
#> # ... with 336,770 more rows, and 11 more variables: arr_delay <dbl>,
#> #   carrier <chr>, flight <int>, tailnum <chr>, origin <chr>, dest <chr>,
#> #   air_time <dbl>, distance <dbl>, hour <dbl>, minute <dbl>, time_hour <dttm>
```
…
上面的所有函数都可以和 `group_by()` 函数联合起来使用，`group_by()` 函数可以改变以上每个函数的作用范围，让其从在整个数据集上操作变为在每个变量的水平上分别操作。这 6 个函数构成了数据处理的基本工具。  

这些函数有完全相同的参数结构和工作方式：  

- 第一个参数是数据集，表明我们想对什么数据进行处理  
- 随后的参数是变量名称（不带引号）描述了在数据上进行什么处理，不同的变量之间用逗号分隔  
- 它们不会改变原数据，而是生成一个新的数据框  

## `filter()` 
`filter()` 可以基于观测值筛选行，符合条件的行留下，不符合条件的被剔除，最终得到一个观测子集。第一个参数是数据集的名称，第二个参数以及随后的参数是用来筛选行的条件。例如，我们可以使用以下代码筛选出一月一日的所有航班（条件：月 = 1 且 日 = 1）

```r
flights %>% 
  filter(month == 1, day == 1)
#> # A tibble: 842 x 19
#>    year month   day dep_time sched_dep_time dep_delay arr_time sched_arr_time
#>   <int> <int> <int>    <int>          <int>     <dbl>    <int>          <int>
#> 1  2013     1     1      517            515         2      830            819
#> 2  2013     1     1      533            529         4      850            830
#> 3  2013     1     1      542            540         2      923            850
#> 4  2013     1     1      544            545        -1     1004           1022
#> 5  2013     1     1      554            600        -6      812            837
#> 6  2013     1     1      554            558        -4      740            728
#> # ... with 836 more rows, and 11 more variables: arr_delay <dbl>,
#> #   carrier <chr>, flight <int>, tailnum <chr>, origin <chr>, dest <chr>,
#> #   air_time <dbl>, distance <dbl>, hour <dbl>, minute <dbl>, time_hour <dttm>
```
…
**逻辑运算符*
`filter()`中的多个参数是“与”的关系，如 `data %>% filter(condition_1,condition_2,···,condition_n)` 表示的是“我希望同时筛选出满足这n个条件的行。如果要实现其他类型的组合，需要使用逻辑（布尔）运算符。`&`表示与，`|`表示或，`!`表示非。下图给出了布尔运算的完整集合：  

<img src="images/18.png" width="524" style="display: block; margin: auto;" />


例如，想要找出11月 **或** 12月出发的所有航班：  

```r
flights %>% filter(month == 11 | month == 12)
#> # A tibble: 55,403 x 19
#>    year month   day dep_time sched_dep_time dep_delay arr_time sched_arr_time
#>   <int> <int> <int>    <int>          <int>     <dbl>    <int>          <int>
#> 1  2013    11     1        5           2359         6      352            345
#> 2  2013    11     1       35           2250       105      123           2356
#> 3  2013    11     1      455            500        -5      641            651
#> 4  2013    11     1      539            545        -6      856            827
#> 5  2013    11     1      542            545        -3      831            855
#> 6  2013    11     1      549            600       -11      912            923
#> # ... with 55,397 more rows, and 11 more variables: arr_delay <dbl>,
#> #   carrier <chr>, flight <int>, tailnum <chr>, origin <chr>, dest <chr>,
#> #   air_time <dbl>, distance <dbl>, hour <dbl>, minute <dbl>, time_hour <dttm>
```


这种问题有一个有用的简写形式：`x %in% y`，这个表达式在x被包含于y的时候返回TRUE，我们可以这样改写上面的代码：


```r
flights %>% filter(month %in% c(11, 12))  ## 找出所有月份值包含在该向量里的行
#> # A tibble: 55,403 x 19
#>    year month   day dep_time sched_dep_time dep_delay arr_time sched_arr_time
#>   <int> <int> <int>    <int>          <int>     <dbl>    <int>          <int>
#> 1  2013    11     1        5           2359         6      352            345
#> 2  2013    11     1       35           2250       105      123           2356
#> 3  2013    11     1      455            500        -5      641            651
#> 4  2013    11     1      539            545        -6      856            827
#> 5  2013    11     1      542            545        -3      831            855
#> 6  2013    11     1      549            600       -11      912            923
#> # ... with 55,397 more rows, and 11 more variables: arr_delay <dbl>,
#> #   carrier <chr>, flight <int>, tailnum <chr>, origin <chr>, dest <chr>,
#> #   air_time <dbl>, distance <dbl>, hour <dbl>, minute <dbl>, time_hour <dttm>
```


有时可以使用德摩根律来将筛选条件简化：`!(x & y)`等价于`!x | !y`，而`!(x | y)`等价于`!x & !y`。例如，如果想要找出延误时间（到达和出发)都不多于两个小时的航班，以下两种方式均可：
`flights %>% filter(arr_delay <= 120 & dep_dealy <= 120 )`  
`flights %>% filter(!(arr_delay > 120| dep_delay > 120 ))`

dplyr中另外一个对筛选有帮助的函数是`between(x, left, right)`，它用于判断x是否落在left和right两个值确定的闭区间里。
例如找出所有在11月和12月出发的航班也可以这样表达：

```r
flights %>% filter(between(month, 11, 12))
#> # A tibble: 55,403 x 19
#>    year month   day dep_time sched_dep_time dep_delay arr_time sched_arr_time
#>   <int> <int> <int>    <int>          <int>     <dbl>    <int>          <int>
#> 1  2013    11     1        5           2359         6      352            345
#> 2  2013    11     1       35           2250       105      123           2356
#> 3  2013    11     1      455            500        -5      641            651
#> 4  2013    11     1      539            545        -6      856            827
#> 5  2013    11     1      542            545        -3      831            855
#> 6  2013    11     1      549            600       -11      912            923
#> # ... with 55,397 more rows, and 11 more variables: arr_delay <dbl>,
#> #   carrier <chr>, flight <int>, tailnum <chr>, origin <chr>, dest <chr>,
#> #   air_time <dbl>, distance <dbl>, hour <dbl>, minute <dbl>, time_hour <dttm>
```
…
For more topics on missing values, see section \@ref(tidyr-missing) and Chapter \@ref(dealing-with-missing-values). 

### Exercises

\BeginKnitrBlock{exercise}<div class="exercise"><span class="exercise" id="exr:unnamed-chunk-17"><strong>(\#exr:unnamed-chunk-17) </strong></span>找出满足以下条件的所有航班: </div>\EndKnitrBlock{exercise}

> 到达时间延误两小时或更多的航班 
  

```r
flights %>% filter(arr_delay >= 120)
#> # A tibble: 10,200 x 19
#>    year month   day dep_time sched_dep_time dep_delay arr_time sched_arr_time
#>   <int> <int> <int>    <int>          <int>     <dbl>    <int>          <int>
#> 1  2013     1     1      811            630       101     1047            830
#> 2  2013     1     1      848           1835       853     1001           1950
#> 3  2013     1     1      957            733       144     1056            853
#> 4  2013     1     1     1114            900       134     1447           1222
#> 5  2013     1     1     1505           1310       115     1638           1431
#> 6  2013     1     1     1525           1340       105     1831           1626
#> # ... with 10,194 more rows, and 11 more variables: arr_delay <dbl>,
#> #   carrier <chr>, flight <int>, tailnum <chr>, origin <chr>, dest <chr>,
#> #   air_time <dbl>, distance <dbl>, hour <dbl>, minute <dbl>, time_hour <dttm>
```

> 飞往休斯顿（IAH机场或者HOU机场）的航班  


```r
flights %>% filter(dest == "IAH" | dest == "HOU")
#> # A tibble: 9,313 x 19
#>    year month   day dep_time sched_dep_time dep_delay arr_time sched_arr_time
#>   <int> <int> <int>    <int>          <int>     <dbl>    <int>          <int>
#> 1  2013     1     1      517            515         2      830            819
#> 2  2013     1     1      533            529         4      850            830
#> 3  2013     1     1      623            627        -4      933            932
#> 4  2013     1     1      728            732        -4     1041           1038
#> 5  2013     1     1      739            739         0     1104           1038
#> 6  2013     1     1      908            908         0     1228           1219
#> # ... with 9,307 more rows, and 11 more variables: arr_delay <dbl>,
#> #   carrier <chr>, flight <int>, tailnum <chr>, origin <chr>, dest <chr>,
#> #   air_time <dbl>, distance <dbl>, hour <dbl>, minute <dbl>, time_hour <dttm>
```

也可以写成`filter(flights, dest %in% c("HOU","IAH"))`

> 由联合航空（United）、美利坚航空（American）或者三角洲航空（Delat）运营的航班
  `carrier`列代表了航空公司，但是用两个字母缩写表示： 
  

```r
flights["carrier"]
#> # A tibble: 336,776 x 1
#>   carrier
#>   <chr>  
#> 1 UA     
#> 2 UA     
#> 3 AA     
#> 4 B6     
#> 5 DL     
#> 6 UA     
#> # ... with 336,770 more rows
```


我们可以在`airlines`数据集中找到这些缩写的含义：  

```r
airlines
#> # A tibble: 16 x 2
#>   carrier name                    
#>   <chr>   <chr>                   
#> 1 9E      Endeavor Air Inc.       
#> 2 AA      American Airlines Inc.  
#> 3 AS      Alaska Airlines Inc.    
#> 4 B6      JetBlue Airways         
#> 5 DL      Delta Air Lines Inc.    
#> 6 EV      ExpressJet Airlines Inc.
#> # ... with 10 more rows
```


三角洲航空对应 “DL”，“UA” 代表联合航空，“AA”代表美利坚航空   

```r
flights %>% filter(carrier %in% c("DL", "UA", "AA"))
#> # A tibble: 139,504 x 19
#>    year month   day dep_time sched_dep_time dep_delay arr_time sched_arr_time
#>   <int> <int> <int>    <int>          <int>     <dbl>    <int>          <int>
#> 1  2013     1     1      517            515         2      830            819
#> 2  2013     1     1      533            529         4      850            830
#> 3  2013     1     1      542            540         2      923            850
#> 4  2013     1     1      554            600        -6      812            837
#> 5  2013     1     1      554            558        -4      740            728
#> 6  2013     1     1      558            600        -2      753            745
#> # ... with 139,498 more rows, and 11 more variables: arr_delay <dbl>,
#> #   carrier <chr>, flight <int>, tailnum <chr>, origin <chr>, dest <chr>,
#> #   air_time <dbl>, distance <dbl>, hour <dbl>, minute <dbl>, time_hour <dttm>
```
> 夏季(7月、8月、9月)出发的航班  


```r
flights %>% filter(month %in% c(7, 8, 9))
#> # A tibble: 86,326 x 19
#>    year month   day dep_time sched_dep_time dep_delay arr_time sched_arr_time
#>   <int> <int> <int>    <int>          <int>     <dbl>    <int>          <int>
#> 1  2013     7     1        1           2029       212      236           2359
#> 2  2013     7     1        2           2359         3      344            344
#> 3  2013     7     1       29           2245       104      151              1
#> 4  2013     7     1       43           2130       193      322             14
#> 5  2013     7     1       44           2150       174      300            100
#> 6  2013     7     1       46           2051       235      304           2358
#> # ... with 86,320 more rows, and 11 more variables: arr_delay <dbl>,
#> #   carrier <chr>, flight <int>, tailnum <chr>, origin <chr>, dest <chr>,
#> #   air_time <dbl>, distance <dbl>, hour <dbl>, minute <dbl>, time_hour <dttm>
```


另一种写法：`filter(flgihts,month >= 7, month <= 9)`  
用`between()`函数的写法：

```r
flights %>% filter(between(month,7,9))
#> # A tibble: 86,326 x 19
#>    year month   day dep_time sched_dep_time dep_delay arr_time sched_arr_time
#>   <int> <int> <int>    <int>          <int>     <dbl>    <int>          <int>
#> 1  2013     7     1        1           2029       212      236           2359
#> 2  2013     7     1        2           2359         3      344            344
#> 3  2013     7     1       29           2245       104      151              1
#> 4  2013     7     1       43           2130       193      322             14
#> 5  2013     7     1       44           2150       174      300            100
#> 6  2013     7     1       46           2051       235      304           2358
#> # ... with 86,320 more rows, and 11 more variables: arr_delay <dbl>,
#> #   carrier <chr>, flight <int>, tailnum <chr>, origin <chr>, dest <chr>,
#> #   air_time <dbl>, distance <dbl>, hour <dbl>, minute <dbl>, time_hour <dttm>
```

> 到达时间延误超过两小时，但出发时间没有延误的航班


```r
flights %>% filter(dep_delay > 120 ,
                   arr_delay <= 120)
#> # A tibble: 1,262 x 19
#>    year month   day dep_time sched_dep_time dep_delay arr_time sched_arr_time
#>   <int> <int> <int>    <int>          <int>     <dbl>    <int>          <int>
#> 1  2013     1     1     1540           1338       122     2020           1825
#> 2  2013     1     2     2334           2129       125       33           2242
#> 3  2013     1     3     1321           1115       126     1450           1257
#> 4  2013     1     3     1758           1550       128     2240           2050
#> 5  2013     1     3     1933           1730       123     2131           1953
#> 6  2013     1     4     1602           1359       123     1715           1517
#> # ... with 1,256 more rows, and 11 more variables: arr_delay <dbl>,
#> #   carrier <chr>, flight <int>, tailnum <chr>, origin <chr>, dest <chr>,
#> #   air_time <dbl>, distance <dbl>, hour <dbl>, minute <dbl>, time_hour <dttm>
```


> 延误至少一小时，但飞行过程弥补回30分钟的航班


```r
flights %>% filter(dep_delay - arr_delay > 30)
#> # A tibble: 17,950 x 19
#>    year month   day dep_time sched_dep_time dep_delay arr_time sched_arr_time
#>   <int> <int> <int>    <int>          <int>     <dbl>    <int>          <int>
#> 1  2013     1     1      701            700         1     1123           1154
#> 2  2013     1     1      820            820         0     1249           1329
#> 3  2013     1     1      840            845        -5     1311           1350
#> 4  2013     1     1      857            851         6     1157           1222
#> 5  2013     1     1      909            810        59     1331           1315
#> 6  2013     1     1     1025            951        34     1258           1302
#> # ... with 17,944 more rows, and 11 more variables: arr_delay <dbl>,
#> #   carrier <chr>, flight <int>, tailnum <chr>, origin <chr>, dest <chr>,
#> #   air_time <dbl>, distance <dbl>, hour <dbl>, minute <dbl>, time_hour <dttm>
```
> 出发时间在午夜和早上6点之间（包括0点和6点）的航班     

  在变量`dep_time`中，0 点用数值 2400 代表：

```r
summary(flights$dep_time)
#>    Min. 1st Qu.  Median    Mean 3rd Qu.    Max.    NA's 
#>       1     907    1401    1349    1744    2400    8255
```
  
  出于这点，不能简单写成`dep_time <= 600`，而是如下：

```r
flights %>%  filter(dep_time <= 600 | dep_time == 2400)
#> # A tibble: 9,373 x 19
#>    year month   day dep_time sched_dep_time dep_delay arr_time sched_arr_time
#>   <int> <int> <int>    <int>          <int>     <dbl>    <int>          <int>
#> 1  2013     1     1      517            515         2      830            819
#> 2  2013     1     1      533            529         4      850            830
#> 3  2013     1     1      542            540         2      923            850
#> 4  2013     1     1      544            545        -1     1004           1022
#> 5  2013     1     1      554            600        -6      812            837
#> 6  2013     1     1      554            558        -4      740            728
#> # ... with 9,367 more rows, and 11 more variables: arr_delay <dbl>,
#> #   carrier <chr>, flight <int>, tailnum <chr>, origin <chr>, dest <chr>,
#> #   air_time <dbl>, distance <dbl>, hour <dbl>, minute <dbl>, time_hour <dttm>
```


\BeginKnitrBlock{exercise}<div class="exercise"><span class="exercise" id="exr:unnamed-chunk-29"><strong>(\#exr:unnamed-chunk-29) </strong></span>dep_time`有缺失值的航班有多少？其他变量的缺失值情况如何？</div>\EndKnitrBlock{exercise}


```r
sum(is.na(flights$dep_time))
#> [1] 8255
flights %>% filter(is.na(dep_time))
#> # A tibble: 8,255 x 19
#>    year month   day dep_time sched_dep_time dep_delay arr_time sched_arr_time
#>   <int> <int> <int>    <int>          <int>     <dbl>    <int>          <int>
#> 1  2013     1     1       NA           1630        NA       NA           1815
#> 2  2013     1     1       NA           1935        NA       NA           2240
#> 3  2013     1     1       NA           1500        NA       NA           1825
#> 4  2013     1     1       NA            600        NA       NA            901
#> 5  2013     1     2       NA           1540        NA       NA           1747
#> 6  2013     1     2       NA           1620        NA       NA           1746
#> # ... with 8,249 more rows, and 11 more variables: arr_delay <dbl>,
#> #   carrier <chr>, flight <int>, tailnum <chr>, origin <chr>, dest <chr>,
#> #   air_time <dbl>, distance <dbl>, hour <dbl>, minute <dbl>, time_hour <dttm>
```
…
# slice_sample() allows you to random select with or without replacement
mtcars %>% slice_sample(n = 5)
mtcars %>% slice_sample(n = 5, replace = TRUE)
```


## `arrange()` 
`arrange()` 的工作方式与 `filter()` 非常相似，但它不是筛选行，而是改变行的顺序。它接受一个数据集和一组作为排序依据的列名（或者更复杂的表达式）作为参数，如果列名不止一个，那么就是用后面的列在前面排序的基础上继续排序：

```r
# 依次按照 year -> month -> day 三个变量按升序排序
flights %>% arrange(year, month, day)  
#> # A tibble: 336,776 x 19
#>    year month   day dep_time sched_dep_time dep_delay arr_time sched_arr_time
#>   <int> <int> <int>    <int>          <int>     <dbl>    <int>          <int>
#> 1  2013     1     1      517            515         2      830            819
#> 2  2013     1     1      533            529         4      850            830
#> 3  2013     1     1      542            540         2      923            850
#> 4  2013     1     1      544            545        -1     1004           1022
#> 5  2013     1     1      554            600        -6      812            837
#> 6  2013     1     1      554            558        -4      740            728
#> # ... with 336,770 more rows, and 11 more variables: arr_delay <dbl>,
#> #   carrier <chr>, flight <int>, tailnum <chr>, origin <chr>, dest <chr>,
#> #   air_time <dbl>, distance <dbl>, hour <dbl>, minute <dbl>, time_hour <dttm>
```

如果想要按某列降序排列行，可以对该列名使用函数`desc()`：

```r
flights %>% arrange(desc(arr_delay))  ## 按照到达延误时间从大到小排序
#> # A tibble: 336,776 x 19
#>    year month   day dep_time sched_dep_time dep_delay arr_time sched_arr_time
#>   <int> <int> <int>    <int>          <int>     <dbl>    <int>          <int>
#> 1  2013     1     9      641            900      1301     1242           1530
#> 2  2013     6    15     1432           1935      1137     1607           2120
#> 3  2013     1    10     1121           1635      1126     1239           1810
#> 4  2013     9    20     1139           1845      1014     1457           2210
#> 5  2013     7    22      845           1600      1005     1044           1815
#> 6  2013     4    10     1100           1900       960     1342           2211
#> # ... with 336,770 more rows, and 11 more variables: arr_delay <dbl>,
#> #   carrier <chr>, flight <int>, tailnum <chr>, origin <chr>, dest <chr>,
#> #   air_time <dbl>, distance <dbl>, hour <dbl>, minute <dbl>, time_hour <dttm>
```
…
