…
<img src="forcats_files/figure-html/unnamed-chunk-17-2.svg" width="672" style="display: block; margin: auto;" />


### Sorting manually 

`fct_infreq()` 和 `fct_reorder()` 排序的依据是明确的，但我们有时也需要人工指定、修改排序结果。`fct_relevel()`接受一个向量调整因子水平的排序。  

这个例子中使用`forcats::gss_cat`，该数据集是综合社会调查（General Social Survey）的一份抽样。综合社会调查是美国芝加哥大学的独立研究组织 NORC 进行的一项长期美国社会调查

```r
gss_cat
#> # A tibble: 21,483 x 9
#>    year marital      age race  rincome    partyid     relig     denom    tvhours
#>   <int> <fct>      <int> <fct> <fct>      <fct>       <fct>     <fct>      <int>
#> 1  2000 Never mar~    26 White $8000 to ~ Ind,near r~ Protesta~ Souther~      12
#> 2  2000 Divorced      48 White $8000 to ~ Not str re~ Protesta~ Baptist~      NA
#> 3  2000 Widowed       67 White Not appli~ Independent Protesta~ No deno~       2
#> 4  2000 Never mar~    39 White Not appli~ Ind,near r~ Orthodox~ Not app~       4
#> 5  2000 Divorced      25 White Not appli~ Not str de~ None      Not app~       1
#> 6  2000 Married       25 White $20000 - ~ Strong dem~ Protesta~ Souther~      NA
#> # ... with 21,477 more rows
…
## Chaninge number of levels

### Lumping levels

To demonstrate how to lump multiple levels of a factor, we will start with `fct_count()` to count factor levels. It's basically a variant of `dplyr::count()`, taking a factor (factor) as its first argument instead of a data frame, which makes it a nice function in `mutate()`. 


```r
fct_count(starwars$skin_color, 
          sort = TRUE,  # sort descendantly
          prop = TRUE)  # compute the fraction of marginal table
#> # A tibble: 31 x 3
#>   f         n      p
#>   <fct> <int>  <dbl>
#> 1 fair     17 0.195 
#> 2 light    11 0.126 
#> 3 dark      6 0.0690
#> 4 green     6 0.0690
#> 5 grey      6 0.0690
#> 6 pale      5 0.0575
#> # ... with 25 more rows
```

`skin_color` has 31 levels overall, and the top 5 to 6 levels occupy more than 50% percent of occurence. In fact, there are 24 levels whose frequency is less than 3%. 


```r
fct_count(starwars$skin_color, prop = TRUE) %>%
  filter(p < 0.03)
#> # A tibble: 24 x 3
#>   f                       n      p
#>   <fct>               <int>  <dbl>
#> 1 blue                    2 0.0230
#> 2 blue, grey              2 0.0230
#> 3 brown mottle            1 0.0115
#> 4 brown, white            1 0.0115
#> 5 fair, green, yellow     1 0.0115
#> 6 gold                    1 0.0115
#> # ... with 18 more rows
```
…
- `fct_lump_min()`: lumps levels that appear fewer than `min` times  

- `fct_lump_prop()`: lumps levels that appear fewer than `prop * n` times  

- `fct_lump_n()`: lumps all levels except for the n most frequent (or least frequent if n < 0)  

- `fct_lump_lowfreq()` lumps together the least frequent levels, ensuring that "other" is still the smallest level.


```r
# lump levels that appear fewer than 5 times into "other"
starwars %>% 
  mutate(skin_color = fct_lump_min(skin_color, min = 5)) %>% 
  count(skin_color, sort = TRUE)
#> # A tibble: 7 x 2
#>   skin_color     n
#>   <fct>      <int>
#> 1 Other         36
#> 2 fair          17
#> 3 light         11
#> 4 dark           6
#> 5 green          6
#> 6 grey           6
#> # ... with 1 more row
…
# preserve 5 least common levels
starwars %>%
  mutate(skin_color = fct_lump(skin_color, n = -5)) %>%
  count(skin_color, sort = TRUE)
#> # A tibble: 17 x 2
#>   skin_color              n
#>   <fct>               <int>
#> 1 Other                  71
#> 2 brown mottle            1
#> 3 brown, white            1
#> 4 fair, green, yellow     1
#> 5 gold                    1
#> 6 green-tan, brown        1
#> # ... with 11 more rows
```
…
### Dropping levels  

有时候我们希望在数据中取出一个子集，这可能导致在子集中，因子在某些水平上的频次为 0，但 R 并不会自动舍弃舍弃频次为 0 的水平：


```r
## 在原始数据汇总，hair_color共有12个水平
nlevels(factor(starwars$hair_color))
#> [1] 12

fct_count(starwars$hair_color)
#> # A tibble: 13 x 2
#>   f                 n
#>   <fct>         <int>
#> 1 auburn            1
#> 2 auburn, grey      1
#> 3 auburn, white     1
#> 4 black            13
#> 5 blond             3
#> 6 blonde            1
#> # ... with 7 more rows

## 筛选重量在70~135的角色，得到一个子集
(starwars_sub <- starwars %>%
  filter(between(mass, 70, 135)))
#> # A tibble: 34 x 13
#>   name  height  mass hair_color skin_color eye_color birth_year gender homeworld
#>   <chr>  <int> <dbl> <chr>      <chr>      <chr>          <dbl> <chr>  <chr>    
#> 1 Luke~    172    77 blond      fair       blue              19 male   Tatooine 
#> 2 C-3PO    167    75 <NA>       gold       yellow           112 <NA>   Tatooine 
#> 3 Owen~    178   120 brown, gr~ light      blue              52 male   Tatooine 
#> 4 Beru~    165    75 brown      light      blue              47 female Tatooine 
#> 5 Bigg~    183    84 black      light      brown             24 male   Tatooine 
#> 6 Obi-~    182    77 auburn, w~ fair       blue-gray         57 male   Stewjon  
#> # ... with 28 more rows, and 4 more variables: species <chr>, films <list>,
#> #   vehicles <list>, starships <list>

## 现在hair_color只在8个有效水平上有记录，但是总的水平个数没有改变 
nlevels(factor(starwars$hair_color))
#> [1] 12
fct_count(starwars_sub$hair_color)
#> # A tibble: 9 x 2
#>   f                 n
#>   <fct>         <int>
#> 1 auburn, white     1
#> 2 black             5
#> 3 blond             2
#> 4 brown             7
#> 5 brown, grey       1
#> 6 grey              1
#> # ... with 3 more rows
…
## Recoding 

比修改因子水平顺序、改变水平个数更强大的操作时修改水平的值。修改水平的值不仅可以使图形标签更为美观清晰，以满足出版发行的要求，还可以将水平汇集成更高层次的显示。修改水平最常用、最强大的工具是`fct_recode()`函数，它可以对每个水平进行修改或重新编码。例如，我们来看一下综合社会调查数据中的因子变量`partyid`:  

```r
fct_count(gss_cat$partyid)
#> # A tibble: 10 x 2
#>   f                      n
#>   <fct>              <int>
#> 1 No answer            154
#> 2 Don't know             1
#> 3 Other party          393
#> 4 Strong republican   2314
#> 5 Not str republican  3032
#> 6 Ind,near rep        1791
#> # ... with 4 more rows
```

在这个因子中，对水平的描述太过简单，而且不一致，我们用 `fct_recode()` 将其修改为较为详细的排比结构，格式为`fct_recode(f,level_new = level_old)`:

```r
gss_cat %>%
  mutate(partyid = fct_recode(partyid, 
                            "Republican,strong" = "Strong republican",
                             "Republican weak"   = "Not str republican",
                             "Independent,near rep" ="Ind,near rep",
                             "Independent,near dem" = "Ind,near dem",
                             "Democrat,weak" = "Not str democrat",
                             "Democrat,strong" = "Strong democrat")) %>%
  count(partyid)
#> # A tibble: 10 x 2
#>   partyid                  n
#>   <fct>                <int>
#> 1 No answer              154
#> 2 Don't know               1
#> 3 Other party            393
#> 4 Republican,strong     2314
#> 5 Republican weak       3032
#> 6 Independent,near rep  1791
#> # ... with 4 more rows
```
…
```r
## 将"no answer"、"Don't know"和"Other party"合并为"Other"
gss_cat %>% mutate(partyid_recode = fct_recode( partyid,
   "Republican,strong" = "Strong republican",
   "Republican weak"   = "Not str republican",
   "Independent,near rep" ="Ind,near rep",
   "Independent,near dem" = "Ind,near dem",
   "Democrat,weak" = "Not str democrat",
   "Democrat,strong" = "Strong democrat",
   "Other" = "No answer",
   "Other" = "Don't know",
   "Other" = "Other party"
 ))  %>% 
  count(partyid_recode)
#> # A tibble: 8 x 2
#>   partyid_recode           n
#>   <fct>                <int>
#> 1 Other                  548
#> 2 Republican,strong     2314
#> 3 Republican weak       3032
#> 4 Independent,near rep  1791
#> 5 Independent           4119
#> 6 Independent,near dem  2499
#> # ... with 2 more rows
```
…
