3.2 Importing data in readr | R for data science: tidyverse and beyond
…
na表明文件中缺失值的表示方法

下面用一些例子演示read_delim()函数的用法，因为它是最一般的形式，一旦掌握它，我们就可将从中学到的经验轻松应用于readr的其他函数。

## column names 
properties <- c("area", "temp", "size", "storage", "method",
                "texture", "flavor", "moistness")

## 文件中用制表符为分隔符
potatoes <- read_delim("data\\potatoes.txt",delim = "\t",
                       col_names = properties)

potatoes
#> # A tibble: 160 x 8
#>    area  temp  size storage method texture flavor moistness
#>   <dbl> <dbl> <dbl>   <dbl>  <dbl>   <dbl>  <dbl>     <dbl>
#> 1     1     1     1       1      1     2.9    3.2       3  
#> 2     1     1     1       1      2     2.3    2.5       2.6
#> 3     1     1     1       1      3     2.5    2.8       2.8
#> 4     1     1     1       1      4     2.1    2.9       2.4
#> 5     1     1     1       1      5     1.9    2.8       2.2
#> 6     1     1     1       2      1     1.8    3         1.7
#> # ... with 154 more rows

当运行readr中的数据导入函数时，会打印出一份数据了说明，给出每个列的名称和类型。后面我们学习解析时，还会继续讨论这项功能。

通过col_types指定前五列为integer类型：

properties <- c("area", "temp", "size", "storage", "method",
                "texture", "flavor", "moistness")

potatoes <- read_delim("data\\potatoes.txt",delim = "\t",
                       col_names = properties,
                       col_types = "iiiiiddd")

potatoes
#> # A tibble: 160 x 8
#>    area  temp  size storage method texture flavor moistness
#>   <int> <int> <int>   <int>  <int>   <dbl>  <dbl>     <dbl>
#> 1     1     1     1       1      1     2.9    3.2       3  
#> 2     1     1     1       1      2     2.3    2.5       2.6
#> 3     1     1     1       1      3     2.5    2.8       2.8
#> 4     1     1     1       1      4     2.1    2.9       2.4
#> 5     1     1     1       1      5     1.9    2.8       2.2
#> 6     1     1     1       2      1     1.8    3         1.7
#> # ... with 154 more rows
…
