3.4 Parsing a file | R for data science: tidyverse and beyond
…
readr的安装包里包含了一份文件challenge.csv，用来说明解析过程中可能遇到的问题。这个csv文件包含两列x，y和2001行观测。x 列的前 1001 行均为整数，但之后的值均为双精度整数。y 列的前 1001 行均为NA，后面是日期型数据：

# readr_example() find path for a built-in readr file
challenge <- read_csv(readr_example("challenge.csv"))
#> Parsed with column specification:
#> cols(
#>   x = col_double(),
#>   y = col_logical()
#> )

可以看到，read_csv() 成功解析了 x，但对于 y 则无从下手，因为使用了错误的解析函数col_logical()。使用 problems() 函数明确列出这些失败记录，以便深入探究其中的问题：

problems(challenge)
#> # A tibble: 1,000 x 5
#>     row col   expected       actual   file                                      
#>   <int> <chr> <chr>          <chr>    <chr>                                     
#> 1  1001 y     1/0/T/F/TRUE/~ 2015-01~ 'C:/Users/Lenovo/Documents/R/win-library/~
#> 2  1002 y     1/0/T/F/TRUE/~ 2018-05~ 'C:/Users/Lenovo/Documents/R/win-library/~
#> 3  1003 y     1/0/T/F/TRUE/~ 2015-09~ 'C:/Users/Lenovo/Documents/R/win-library/~
#> 4  1004 y     1/0/T/F/TRUE/~ 2012-11~ 'C:/Users/Lenovo/Documents/R/win-library/~
#> 5  1005 y     1/0/T/F/TRUE/~ 2020-01~ 'C:/Users/Lenovo/Documents/R/win-library/~
#> 6  1006 y     1/0/T/F/TRUE/~ 2016-04~ 'C:/Users/Lenovo/Documents/R/win-library/~
#> # ... with 994 more rows
…
sticker_tidy <- read_tsv("data/sticker.tab",
                         col_names = sticker_names,
                         skip = 2)
# or 
read_tsv("data/sticker.tab",
          col_names = FALSE,
          skip = 2) %>% 
  set_names(sticker_names)
#> # A tibble: 401 x 18
#>   subject_number condition number_stickers number_envelopes gender agemonths
#>            <dbl>     <dbl>           <dbl>            <dbl>  <dbl>     <dbl>
#> 1              1         1               1                1      1        36
#> 2              2         1               1                1      2        36
#> 3              3         1               1                1      2        36
#> 4              4         1               1                1      1        36
#> 5              5         1               1                1      2        36
#> 6              6         1               1                1      2        36
#> # ... with 395 more rows, and 12 more variables: ageyears <dbl>,
#> #   agegroups <dbl>, subjects_envelope <dbl>, left_envelope <dbl>,
#> #   right_envelope <dbl>, stickers_give <dbl>,
#> #   percent_given_outof100percent <dbl>, giveornot <dbl>,
#> #   larger_envelopeabs <dbl>, large_envelopepercent <dbl>,
#> #   smaller_envelopeabs <dbl>, small_envelopepercent <dbl>

What if we want to include that meta data? Create a variable description column use pivot_longer()

sticker_dict <- read_tsv("data/sticker.tab", n_max = 1) %>% 
  rename(stickersgiven = 'absolutenumberofstickersgiven(Conditions1or3:Outof12;Conditions2or4:Outof30)') %>% 
  janitor::clean_names() %>% 
  pivot_longer(everything(), 
               names_to = "variable_name", 
               values_to = "variable_description")

sticker_dict
#> # A tibble: 18 x 2
#>   variable_name    variable_description          
#>   <chr>            <chr>                         
#> 1 subject_number   [Included Sample Only]        
#> 2 condition        1=12:1; 2=12:2, 3=30:1, 4=30:2
#> 3 number_stickers  1=12; 2=30                    
#> 4 number_envelopes 1=1 recipient; 2=2 recipients 
#> 5 gender           1=female; 2=male              
#> 6 agemonths        <NA>                          
#> # ... with 12 more rows
…
