11.1 PDF | R for data science: tidyverse and beyond
…
#> 
#> $locked
#> [1] FALSE
#> 
#> $attachments
#> [1] FALSE
#> 
#> $layout
#> [1] "no_layout"
pdf_fonts("data/1403.2805.pdf")
#> # A tibble: 18 x 4
#>   name          type   embedded file                           
#>   <chr>         <chr>  <lgl>    <chr>                          
#> 1 Times-Roman   type1  FALSE    "C:\\windows\\Fonts\\arial.ttf"
#> 2 UWJIZQ+CMTT10 type1c TRUE     ""                             
#> 3 OYDUEZ+CMR10  type1c TRUE     ""                             
#> 4 EBLJKS+CMTI10 type1c TRUE     ""                             
#> 5 APBPVY+CMBX12 type1c TRUE     ""                             
#> 6 FBFBNT+CMTI9  type1c TRUE     ""                             
#> # ... with 12 more rows
…
  # creat text connection so that the text can be read back with read.csv()
  table <- table_raw %>% 
    textConnection() %>% 
    read.csv(sep = "|", 
             col.names = c("condition", "males", "females", "total")) %>%
    as_tibble() %>% 
    mutate(country = country_name)
  
  table
}

df <- map_dfr(raw_text, get_table)

df
#> # A tibble: 16 x 5
#>   condition           males females total country                 
#>   <fct>               <chr> <chr>   <chr> <chr>                   
#> 1 Diabetes            10.5% 8.3%    9.4%  China                   
#> 2 Overweight          37.2% 33.6%   35.4% China                   
#> 3 Obesity             6.2%  8.5%    7.3%  China                   
#> 4 Physical inactivity 22.2% 25.4%   23.8% China                   
#> 5 Diabetes            9.8%  8.3%    9.1%  United States Of America
#> 6 Overweight          74.1% 65.3%   69.6% United States Of America
#> # ... with 10 more rows

There is one problem left, we need to convert percentage (recoginized as character) back to numeric:

df %>% 
  mutate_at(vars(males, females, total), ~ parse_number(.x) / 100)
#> # A tibble: 16 x 5
#>   condition           males females total country                 
#>   <fct>               <dbl>   <dbl> <dbl> <chr>                   
#> 1 Diabetes            0.105   0.083 0.094 China                   
#> 2 Overweight          0.372   0.336 0.354 China                   
#> 3 Obesity             0.062   0.085 0.073 China                   
#> 4 Physical inactivity 0.222   0.254 0.238 China                   
#> 5 Diabetes            0.098   0.083 0.091 United States Of America
#> 6 Overweight          0.741   0.653 0.696 United States Of America
#> # ... with 10 more rows
