…
`group_split()` is a tidy version of `base::split()`. In particular, it respects a group_by()-like grouping specification, and refuses to name its result.



```r
iris %>% 
  as_tibble() %>%
  group_split(Species)
#> [[1]]
#> # A tibble: 50 x 5
#>   Sepal.Length Sepal.Width Petal.Length Petal.Width Species
#>          <dbl>       <dbl>        <dbl>       <dbl> <fct>  
#> 1          5.1         3.5          1.4         0.2 setosa 
#> 2          4.9         3            1.4         0.2 setosa 
#> 3          4.7         3.2          1.3         0.2 setosa 
#> 4          4.6         3.1          1.5         0.2 setosa 
#> 5          5           3.6          1.4         0.2 setosa 
#> 6          5.4         3.9          1.7         0.4 setosa 
#> # ... with 44 more rows
#> 
#> [[2]]
#> # A tibble: 50 x 5
#>   Sepal.Length Sepal.Width Petal.Length Petal.Width Species   
#>          <dbl>       <dbl>        <dbl>       <dbl> <fct>     
#> 1          7           3.2          4.7         1.4 versicolor
#> 2          6.4         3.2          4.5         1.5 versicolor
#> 3          6.9         3.1          4.9         1.5 versicolor
#> 4          5.5         2.3          4           1.3 versicolor
#> 5          6.5         2.8          4.6         1.5 versicolor
#> 6          5.7         2.8          4.5         1.3 versicolor
#> # ... with 44 more rows
#> 
#> [[3]]
#> # A tibble: 50 x 5
#>   Sepal.Length Sepal.Width Petal.Length Petal.Width Species  
#>          <dbl>       <dbl>        <dbl>       <dbl> <fct>    
#> 1          6.3         3.3          6           2.5 virginica
#> 2          5.8         2.7          5.1         1.9 virginica
#> 3          7.1         3            5.9         2.1 virginica
#> 4          6.3         2.9          5.6         1.8 virginica
#> 5          6.5         3            5.8         2.2 virginica
#> 6          7.6         3            6.6         2.1 virginica
#> # ... with 44 more rows
…
