…
下面用一些例子演示`read_delim()`函数的用法，因为它是最一般的形式，一旦掌握它，我们就可将从中学到的经验轻松应用于`readr`的其他函数。  

```r
## column names 
properties <- c("area", "temp", "size", "storage", "method",
                "texture", "flavor", "moistness")

## 文件中用制表符为分隔符
potatoes <- read_delim("data\\potatoes.txt",delim = "\t",
                       col_names = properties)

potatoes
#> # A tibble: 160 x 8
#>    area  temp  size storage method texture flavor moistness
#>   <dbl> <dbl> <dbl>   <dbl>  <dbl>   <dbl>  <dbl>     <dbl>
#> 1     1     1     1       1      1     2.9    3.2       3  
#> 2     1     1     1       1      2     2.3    2.5       2.6
#> 3     1     1     1       1      3     2.5    2.8       2.8
#> 4     1     1     1       1      4     2.1    2.9       2.4
#> 5     1     1     1       1      5     1.9    2.8       2.2
#> 6     1     1     1       2      1     1.8    3         1.7
#> # ... with 154 more rows
```
当运行`readr`中的数据导入函数时，会打印出一份数据了说明，给出每个列的名称和类型。后面我们学习解析时，还会继续讨论这项功能。  

通过`col_types`指定前五列为`integer`类型：

```r
properties <- c("area", "temp", "size", "storage", "method",
                "texture", "flavor", "moistness")


potatoes <- read_delim("data\\potatoes.txt",delim = "\t",
                       col_names = properties,
                       col_types = "iiiiiddd")

potatoes
#> # A tibble: 160 x 8
#>    area  temp  size storage method texture flavor moistness
#>   <int> <int> <int>   <int>  <int>   <dbl>  <dbl>     <dbl>
#> 1     1     1     1       1      1     2.9    3.2       3  
#> 2     1     1     1       1      2     2.3    2.5       2.6
#> 3     1     1     1       1      3     2.5    2.8       2.8
#> 4     1     1     1       1      4     2.1    2.9       2.4
#> 5     1     1     1       1      5     1.9    2.8       2.2
#> 6     1     1     1       2      1     1.8    3         1.7
#> # ... with 154 more rows
```
…
可以看到，`read_csv()` 成功解析了 `x`，但对于 `y` 则无从下手，因为使用了错误的解析函数`col_logical()`。使用 `problems()` 函数明确列出这些失败记录，以便深入探究其中的问题：  


```r
problems(challenge)
#> # A tibble: 1,000 x 5
#>     row col   expected       actual   file                                      
#>   <int> <chr> <chr>          <chr>    <chr>                                     
#> 1  1001 y     1/0/T/F/TRUE/~ 2015-01~ 'C:/Users/Lenovo/Documents/R/win-library/~
#> 2  1002 y     1/0/T/F/TRUE/~ 2018-05~ 'C:/Users/Lenovo/Documents/R/win-library/~
#> 3  1003 y     1/0/T/F/TRUE/~ 2015-09~ 'C:/Users/Lenovo/Documents/R/win-library/~
#> 4  1004 y     1/0/T/F/TRUE/~ 2012-11~ 'C:/Users/Lenovo/Documents/R/win-library/~
#> 5  1005 y     1/0/T/F/TRUE/~ 2020-01~ 'C:/Users/Lenovo/Documents/R/win-library/~
#> 6  1006 y     1/0/T/F/TRUE/~ 2016-04~ 'C:/Users/Lenovo/Documents/R/win-library/~
#> # ... with 994 more rows
```
…
```r
sticker_tidy <- read_tsv("data/sticker.tab",
                         col_names = sticker_names,
                         skip = 2)
# or 
read_tsv("data/sticker.tab",
          col_names = FALSE,
          skip = 2) %>% 
  set_names(sticker_names)
#> # A tibble: 401 x 18
#>   subject_number condition number_stickers number_envelopes gender agemonths
#>            <dbl>     <dbl>           <dbl>            <dbl>  <dbl>     <dbl>
#> 1              1         1               1                1      1        36
#> 2              2         1               1                1      2        36
#> 3              3         1               1                1      2        36
#> 4              4         1               1                1      1        36
#> 5              5         1               1                1      2        36
#> 6              6         1               1                1      2        36
#> # ... with 395 more rows, and 12 more variables: ageyears <dbl>,
#> #   agegroups <dbl>, subjects_envelope <dbl>, left_envelope <dbl>,
#> #   right_envelope <dbl>, stickers_give <dbl>,
#> #   percent_given_outof100percent <dbl>, giveornot <dbl>,
#> #   larger_envelopeabs <dbl>, large_envelopepercent <dbl>,
#> #   smaller_envelopeabs <dbl>, small_envelopepercent <dbl>
```

What if we want to include that meta data? Create a variable description column use `pivot_longer()`


```r
sticker_dict <- read_tsv("data/sticker.tab", n_max = 1) %>% 
  rename(stickersgiven = 'absolutenumberofstickersgiven(Conditions1or3:Outof12;Conditions2or4:Outof30)') %>% 
  janitor::clean_names() %>% 
  pivot_longer(everything(), 
               names_to = "variable_name", 
               values_to = "variable_description")

sticker_dict
#> # A tibble: 18 x 2
#>   variable_name    variable_description          
#>   <chr>            <chr>                         
#> 1 subject_number   [Included Sample Only]        
#> 2 condition        1=12:1; 2=12:2, 3=30:1, 4=30:2
#> 3 number_stickers  1=12; 2=30                    
#> 4 number_envelopes 1=1 recipient; 2=2 recipients 
#> 5 gender           1=female; 2=male              
#> 6 agemonths        <NA>                          
#> # ... with 12 more rows
```
…
经常会在读取 Excel 文件时遇到的一个问题是,有些人喜欢在表格的前面几行或最后几行添加一些元数据（metadata），比如在 `deaths.xlsx` 中： 

<img src="images/9.png" width="378" style="display: block; margin: auto;" />



默认设置下，`read_excel()` 会将这些元数据一并读入：  


```r
deaths 
#> # A tibble: 18 x 6
#>   `Lots of people`           ...2      ...3  ...4    ...5        ...6           
#>   <chr>                      <chr>     <chr> <chr>   <chr>       <chr>          
#> 1 simply cannot resist writ~ <NA>      <NA>  <NA>    <NA>        some notes     
#> 2 at                         the       top   <NA>    of          their spreadsh~
#> 3 or                         merging   <NA>  <NA>    <NA>        cells          
#> 4 Name                       Professi~ Age   Has ki~ Date of bi~ Date of death  
#> 5 David Bowie                musician  69    TRUE    17175       42379          
#> 6 Carrie Fisher              actor     60    TRUE    20749       42731          
#> # ... with 12 more rows
```

一个很有用的方法是通过 Sstudio 的 File $\rightarrow$ Import Dataset $\rightarrow$ From Excel 接口导入数据，我们可以通过预览来观察导入后的数据，还可以对`read_excel()`的导入参数进行设置：

<img src="images/7.png" width="592" style="display: block; margin: auto;" />





对于`deaths.xlsx`这个Excel文件，可以结合使用`n_max` 和 `skip` 参数去除不想读取的部分（分别对应图形界面里的Max Rows和Skip：

```r
read_excel(path,  skip= 4, n_max = 10)
#> # A tibble: 10 x 6
#>   Name       Profession   Age `Has kids` `Date of birth`     `Date of death`    
#>   <chr>      <chr>      <dbl> <lgl>      <dttm>              <dttm>             
#> 1 David Bow~ musician      69 TRUE       1947-01-08 00:00:00 2016-01-10 00:00:00
#> 2 Carrie Fi~ actor         60 TRUE       1956-10-21 00:00:00 2016-12-27 00:00:00
#> 3 Chuck Ber~ musician      90 TRUE       1926-10-18 00:00:00 2017-03-18 00:00:00
#> 4 Bill Paxt~ actor         61 TRUE       1955-05-17 00:00:00 2017-02-25 00:00:00
#> 5 Prince     musician      57 TRUE       1958-06-07 00:00:00 2016-04-21 00:00:00
#> 6 Alan Rick~ actor         69 FALSE      1946-02-21 00:00:00 2016-01-14 00:00:00
#> # ... with 4 more rows
```

`read_excel()` 中另一个很有用的参数是 `range`，用于指定一块 Excel 表中要读取的区域：

```r
read_excel(path, sheet = "arts", range = "A5:F15")
#> # A tibble: 10 x 6
#>   Name       Profession   Age `Has kids` `Date of birth`     `Date of death`    
#>   <chr>      <chr>      <dbl> <lgl>      <dttm>              <dttm>             
#> 1 David Bow~ musician      69 TRUE       1947-01-08 00:00:00 2016-01-10 00:00:00
#> 2 Carrie Fi~ actor         60 TRUE       1956-10-21 00:00:00 2016-12-27 00:00:00
#> 3 Chuck Ber~ musician      90 TRUE       1926-10-18 00:00:00 2017-03-18 00:00:00
#> 4 Bill Paxt~ actor         61 TRUE       1955-05-17 00:00:00 2017-02-25 00:00:00
#> 5 Prince     musician      57 TRUE       1958-06-07 00:00:00 2016-04-21 00:00:00
#> 6 Alan Rick~ actor         69 FALSE      1946-02-21 00:00:00 2016-01-14 00:00:00
#> # ... with 4 more rows
## 还可以在range中指定列名
read_excel(path, range = "arts!A5:F15")
#> # A tibble: 10 x 6
#>   Name       Profession   Age `Has kids` `Date of birth`     `Date of death`    
#>   <chr>      <chr>      <dbl> <lgl>      <dttm>              <dttm>             
#> 1 David Bow~ musician      69 TRUE       1947-01-08 00:00:00 2016-01-10 00:00:00
#> 2 Carrie Fi~ actor         60 TRUE       1956-10-21 00:00:00 2016-12-27 00:00:00
#> 3 Chuck Ber~ musician      90 TRUE       1926-10-18 00:00:00 2017-03-18 00:00:00
#> 4 Bill Paxt~ actor         61 TRUE       1955-05-17 00:00:00 2017-02-25 00:00:00
#> 5 Prince     musician      57 TRUE       1958-06-07 00:00:00 2016-04-21 00:00:00
#> 6 Alan Rick~ actor         69 FALSE      1946-02-21 00:00:00 2016-01-14 00:00:00
#> # ... with 4 more rows
```
…
