3.5 readxl | R for data science: tidyverse and beyond
…
默认设置下，read_excel() 会将这些元数据一并读入：

deaths 
#> # A tibble: 18 x 6
#>   `Lots of people`           ...2      ...3  ...4    ...5        ...6           
#>   <chr>                      <chr>     <chr> <chr>   <chr>       <chr>          
#> 1 simply cannot resist writ~ <NA>      <NA>  <NA>    <NA>        some notes     
#> 2 at                         the       top   <NA>    of          their spreadsh~
#> 3 or                         merging   <NA>  <NA>    <NA>        cells          
#> 4 Name                       Professi~ Age   Has ki~ Date of bi~ Date of death  
#> 5 David Bowie                musician  69    TRUE    17175       42379          
#> 6 Carrie Fisher              actor     60    TRUE    20749       42731          
#> # ... with 12 more rows
…
对于deaths.xlsx这个Excel文件，可以结合使用n_max 和 skip 参数去除不想读取的部分（分别对应图形界面里的Max Rows和Skip：

read_excel(path,  skip= 4, n_max = 10)
#> # A tibble: 10 x 6
#>   Name       Profession   Age `Has kids` `Date of birth`     `Date of death`    
#>   <chr>      <chr>      <dbl> <lgl>      <dttm>              <dttm>             
#> 1 David Bow~ musician      69 TRUE       1947-01-08 00:00:00 2016-01-10 00:00:00
#> 2 Carrie Fi~ actor         60 TRUE       1956-10-21 00:00:00 2016-12-27 00:00:00
#> 3 Chuck Ber~ musician      90 TRUE       1926-10-18 00:00:00 2017-03-18 00:00:00
#> 4 Bill Paxt~ actor         61 TRUE       1955-05-17 00:00:00 2017-02-25 00:00:00
#> 5 Prince     musician      57 TRUE       1958-06-07 00:00:00 2016-04-21 00:00:00
#> 6 Alan Rick~ actor         69 FALSE      1946-02-21 00:00:00 2016-01-14 00:00:00
#> # ... with 4 more rows

read_excel() 中另一个很有用的参数是 range，用于指定一块 Excel 表中要读取的区域：

read_excel(path, sheet = "arts", range = "A5:F15")
#> # A tibble: 10 x 6
#>   Name       Profession   Age `Has kids` `Date of birth`     `Date of death`    
#>   <chr>      <chr>      <dbl> <lgl>      <dttm>              <dttm>             
#> 1 David Bow~ musician      69 TRUE       1947-01-08 00:00:00 2016-01-10 00:00:00
#> 2 Carrie Fi~ actor         60 TRUE       1956-10-21 00:00:00 2016-12-27 00:00:00
#> 3 Chuck Ber~ musician      90 TRUE       1926-10-18 00:00:00 2017-03-18 00:00:00
#> 4 Bill Paxt~ actor         61 TRUE       1955-05-17 00:00:00 2017-02-25 00:00:00
#> 5 Prince     musician      57 TRUE       1958-06-07 00:00:00 2016-04-21 00:00:00
#> 6 Alan Rick~ actor         69 FALSE      1946-02-21 00:00:00 2016-01-14 00:00:00
#> # ... with 4 more rows
## 还可以在range中指定列名
read_excel(path, range = "arts!A5:F15")
#> # A tibble: 10 x 6
#>   Name       Profession   Age `Has kids` `Date of birth`     `Date of death`    
#>   <chr>      <chr>      <dbl> <lgl>      <dttm>              <dttm>             
#> 1 David Bow~ musician      69 TRUE       1947-01-08 00:00:00 2016-01-10 00:00:00
#> 2 Carrie Fi~ actor         60 TRUE       1956-10-21 00:00:00 2016-12-27 00:00:00
#> 3 Chuck Ber~ musician      90 TRUE       1926-10-18 00:00:00 2017-03-18 00:00:00
#> 4 Bill Paxt~ actor         61 TRUE       1955-05-17 00:00:00 2017-02-25 00:00:00
#> 5 Prince     musician      57 TRUE       1958-06-07 00:00:00 2016-04-21 00:00:00
#> 6 Alan Rick~ actor         69 FALSE      1946-02-21 00:00:00 2016-01-14 00:00:00
#> # ... with 4 more rows
…
