1.3 select() | R for data science: tidyverse and beyond
…
#> $ sched_arr_time <int> 819, 830, 850, 1022, 837, 728, 854, 723, 846, 745, 8...
#> $ arr_delay      <dbl> 11, 20, 33, -18, -25, 12, 19, -14, -8, 8, -2, -3, 7,...
#> $ carrier        <chr> "UA", "UA", "AA", "B6", "DL", "UA", "B6", "EV", "B6"...
#> $ flight         <int> 1545, 1714, 1141, 725, 461, 1696, 507, 5708, 79, 301...
#> $ tailnum        <chr> "N14228", "N24211", "N619AA", "N804JB", "N668DN", "N...
#> $ origin         <chr> "EWR", "LGA", "JFK", "JFK", "LGA", "EWR", "EWR", "LG...
#> $ dest           <chr> "IAH", "IAH", "MIA", "BQN", "ATL", "ORD", "FLL", "IA...
#> $ air_time       <dbl> 227, 227, 160, 183, 116, 150, 158, 53, 140, 138, 149...
#> $ distance       <dbl> 1400, 1416, 1089, 1576, 762, 719, 1065, 229, 944, 73...
#> $ hour           <dbl> 5, 5, 5, 5, 6, 5, 6, 6, 6, 6, 6, 6, 6, 6, 6, 5, 6, 6...
#> $ minute         <dbl> 15, 29, 40, 45, 0, 58, 0, 0, 0, 0, 0, 0, 0, 0, 0, 59...
#> $ time_hour      <dttm> 2013-01-01 05:00:00, 2013-01-01 05:00:00, 2013-01-0...
# 选择 year,month,day 三个变量
flights %>% select(year, month, day)
#> # A tibble: 336,776 x 3
#>    year month   day
#>   <int> <int> <int>
#> 1  2013     1     1
#> 2  2013     1     1
#> 3  2013     1     1
#> 4  2013     1     1
#> 5  2013     1     1
#> 6  2013     1     1
#> # ... with 336,770 more rows
…
select() 还可以重命名变量，但应该避免这样使用它，因为这样会丢掉所有未明确提及的变量。我们应该使用 select() 函数的变体 rename() 函数来重命名变量，它会把未提及的那些变量按照原名字放到生成的数据框里：

# 将 tail_num 重命名为 tailnum
rename(flights, tail_num = tailnum)
#> # A tibble: 336,776 x 19
#>    year month   day dep_time sched_dep_time dep_delay arr_time sched_arr_time
#>   <int> <int> <int>    <int>          <int>     <dbl>    <int>          <int>
#> 1  2013     1     1      517            515         2      830            819
#> 2  2013     1     1      533            529         4      850            830
#> 3  2013     1     1      542            540         2      923            850
#> 4  2013     1     1      544            545        -1     1004           1022
#> 5  2013     1     1      554            600        -6      812            837
#> 6  2013     1     1      554            558        -4      740            728
#> # ... with 336,770 more rows, and 11 more variables: arr_delay <dbl>,
#> #   carrier <chr>, flight <int>, tail_num <chr>, origin <chr>, dest <chr>,
#> #   air_time <dbl>, distance <dbl>, hour <dbl>, minute <dbl>, time_hour <dttm>

其他常见的select()函数用法如下所示：

## 选择“year”和“day”之间的所有变量，冒号
flights %>% select(year:day)
#> # A tibble: 336,776 x 3
#>    year month   day
#>   <int> <int> <int>
#> 1  2013     1     1
#> 2  2013     1     1
#> 3  2013     1     1
#> 4  2013     1     1
#> 5  2013     1     1
#> 6  2013     1     1
#> # ... with 336,770 more rows

## 选择不在“year”和“day”之间的所有列，减号
flights %>% select(-(year:day))
#> # A tibble: 336,776 x 16
#>   dep_time sched_dep_time dep_delay arr_time sched_arr_time arr_delay carrier
#>      <int>          <int>     <dbl>    <int>          <int>     <dbl> <chr>  
#> 1      517            515         2      830            819        11 UA     
#> 2      533            529         4      850            830        20 UA     
#> 3      542            540         2      923            850        33 AA     
#> 4      544            545        -1     1004           1022       -18 B6     
#> 5      554            600        -6      812            837       -25 DL     
#> 6      554            558        -4      740            728        12 UA     
#> # ... with 336,770 more rows, and 9 more variables: flight <int>,
#> #   tailnum <chr>, origin <chr>, dest <chr>, air_time <dbl>, distance <dbl>,
#> #   hour <dbl>, minute <dbl>, time_hour <dttm>

还可以在select()函数中使用一些辅助函数：

* starts_with("abc")：匹配以名字以“abc”开头的列

flights %>% select(starts_with("arr"))  ## 所有以arr开头的列
#> # A tibble: 336,776 x 2
#>   arr_time arr_delay
#>      <int>     <dbl>
#> 1      830        11
#> 2      850        20
#> 3      923        33
#> 4     1004       -18
#> 5      812       -25
#> 6      740        12
#> # ... with 336,770 more rows

ends_with("xyz"): 匹配名字以“xyz”结尾的列

## 所有以"delay"结尾的列
flights %>% select(ends_with("delay"))
#> # A tibble: 336,776 x 2
#>   dep_delay arr_delay
#>       <dbl>     <dbl>
#> 1         2        11
#> 2         4        20
#> 3         2        33
#> 4        -1       -18
#> 5        -6       -25
#> 6        -4        12
#> # ... with 336,770 more rows

contains("ijk")，匹配名字包含“ijk”的列

## 所有包含"time"的列
flights %>% select(contains("time"))
#> # A tibble: 336,776 x 6
#>   dep_time sched_dep_time arr_time sched_arr_time air_time time_hour          
#>      <int>          <int>    <int>          <int>    <dbl> <dttm>             
#> 1      517            515      830            819      227 2013-01-01 05:00:00
#> 2      533            529      850            830      227 2013-01-01 05:00:00
#> 3      542            540      923            850      160 2013-01-01 05:00:00
#> 4      544            545     1004           1022      183 2013-01-01 05:00:00
#> 5      554            600      812            837      116 2013-01-01 06:00:00
#> 6      554            558      740            728      150 2013-01-01 05:00:00
#> # ... with 336,770 more rows

matches("(.)\\1")：选择名字符合正则表达式要求的列，后面将具体讲述正则表达式

num_range("x",c(1,2,3))，选择名字为“x1”、“x2”、“x3”的列

df <- tibble(x1 = 1,x2 = 2,x3 = 3)
df %>% select(num_range("X", 1:3))
#> # A tibble: 1 x 0

one_of(character_1,···,character_n):如果某个列的名字出现在序列里，则选出它

flights %>% select(one_of("arr_delay", "dep_delay", "xyz"))
#> # A tibble: 336,776 x 2
#>   arr_delay dep_delay
#>       <dbl>     <dbl>
#> 1        11         2
#> 2        20         4
#> 3        33         2
#> 4       -18        -1
#> 5       -25        -6
#> 6        12        -4
#> # ... with 336,770 more rows

everything()：匹配所有(剩余)变量，当想要将几个变量移到数据集开头时，这种方法很有用

## 将time_hour和air_time两个变量移到flights数据的开头
flights %>% select(time_hour,air_time, everything())
#> # A tibble: 336,776 x 19
#>   time_hour           air_time  year month   day dep_time sched_dep_time
#>   <dttm>                 <dbl> <int> <int> <int>    <int>          <int>
#> 1 2013-01-01 05:00:00      227  2013     1     1      517            515
#> 2 2013-01-01 05:00:00      227  2013     1     1      533            529
#> 3 2013-01-01 05:00:00      160  2013     1     1      542            540
#> 4 2013-01-01 05:00:00      183  2013     1     1      544            545
#> 5 2013-01-01 06:00:00      116  2013     1     1      554            600
#> 6 2013-01-01 05:00:00      150  2013     1     1      554            558
#> # ... with 336,770 more rows, and 12 more variables: dep_delay <dbl>,
#> #   arr_time <int>, sched_arr_time <int>, arr_delay <dbl>, carrier <chr>,
#> #   flight <int>, tailnum <chr>, origin <chr>, dest <chr>, distance <dbl>,
#> #   hour <dbl>, minute <dbl>

last_col(offset = n)：选择倒数第n列，不设置offset时，默认选择最后一列

flights %>% select(last_col())
#> # A tibble: 336,776 x 1
#>   time_hour          
#>   <dttm>             
#> 1 2013-01-01 05:00:00
#> 2 2013-01-01 05:00:00
#> 3 2013-01-01 05:00:00
#> 4 2013-01-01 05:00:00
#> 5 2013-01-01 06:00:00
#> 6 2013-01-01 05:00:00
#> # ... with 336,770 more rows

利用这些帮助函数，我们可以为选择列设置任意数目的条件，select()中以逗号分隔的列表示“或” 关系，如：

## 找出以“arr”开头或者以“time”结尾的列
flights %>% select(starts_with("arr"), ends_with("time"))
#> # A tibble: 336,776 x 6
#>   arr_time arr_delay dep_time sched_dep_time sched_arr_time air_time
#>      <int>     <dbl>    <int>          <int>          <int>    <dbl>
#> 1      830        11      517            515            819      227
#> 2      850        20      533            529            830      227
#> 3      923        33      542            540            850      160
#> 4     1004       -18      544            545           1022      183
#> 5      812       -25      554            600            837      116
#> 6      740        12      554            558            728      150
#> # ... with 336,770 more rows

注意:

所有帮助函数都忽略大小写:

flights %>% 
  select(ends_with("DELAY"))
#> # A tibble: 336,776 x 2
#>   dep_delay arr_delay
#>       <dbl>     <dbl>
#> 1         2        11
#> 2         4        20
#> 3         2        33
#> 4        -1       -18
#> 5        -6       -25
#> 6        -4        12
#> # ... with 336,770 more rows
…
# 常规方法
flights %>% select(dep_time, dep_delay, arr_time, arr_delay)
#> # A tibble: 336,776 x 4
#>   dep_time dep_delay arr_time arr_delay
#>      <int>     <dbl>    <int>     <dbl>
#> 1      517         2      830        11
#> 2      533         4      850        20
#> 3      542         2      923        33
#> 4      544        -1     1004       -18
#> 5      554        -6      812       -25
#> 6      554        -4      740        12
#> # ... with 336,770 more rows

# one_of()
vars = c("dep_time", "dep_delay", "arr_time", "arr_delay")
flights %>% select(one_of(vars))
#> # A tibble: 336,776 x 4
#>   dep_time dep_delay arr_time arr_delay
#>      <int>     <dbl>    <int>     <dbl>
#> 1      517         2      830        11
#> 2      533         4      850        20
#> 3      542         2      923        33
#> 4      544        -1     1004       -18
#> 5      554        -6      812       -25
#> 6      554        -4      740        12
#> # ... with 336,770 more rows

# 多个条件
flights %>% select(starts_with("arr_"), starts_with("dep_"))
#> # A tibble: 336,776 x 4
#>   arr_time arr_delay dep_time dep_delay
#>      <int>     <dbl>    <int>     <dbl>
#> 1      830        11      517         2
#> 2      850        20      533         4
#> 3      923        33      542         2
#> 4     1004       -18      544        -1
#> 5      812       -25      554        -6
#> 6      740        12      554        -4
#> # ... with 336,770 more rows

Exercise 1.8  如果在select()中多次计入一个变量名，会发生什么情况？

select()函数将会忽略重复出现的变量，只选出一列，同时也不会报错：

flights %>% select(year, month, day, year, month, day)
#> # A tibble: 336,776 x 3
#>    year month   day
#>   <int> <int> <int>
#> 1  2013     1     1
#> 2  2013     1     1
#> 3  2013     1     1
#> 4  2013     1     1
#> 5  2013     1     1
#> 6  2013     1     1
#> # ... with 336,770 more rows

##mutate()

除了选择现有的列，经常还需要添加新列。新列是现有列的函数，这就 mutate() 函数的作用。

mutate() 总是将新列添加在最后,格式为 新列名= 表达式。为了便于观察它的效果，我们需要先创建一个更狭窄的数据集，以便能看到新变量。

例如，我们希望创建两个新列gain和hours，分别表示飞机在飞行过程中弥补的延误时间 (gain = arr_dealy - dep_delay)，然后把飞行时间换算成小时 hours = air_time / 60

(flights_gain <- flights %>% 
   select(ends_with("delay"),air_time) %>% 
   mutate(gain = arr_delay - dep_delay,
            hours = air_time / 60))
#> # A tibble: 336,776 x 5
#>   dep_delay arr_delay air_time  gain hours
#>       <dbl>     <dbl>    <dbl> <dbl> <dbl>
#> 1         2        11      227     9  3.78
#> 2         4        20      227    16  3.78
#> 3         2        33      160    31  2.67
#> 4        -1       -18      183   -17  3.05
#> 5        -6       -25      116   -19  1.93
#> 6        -4        12      150    16  2.5 
#> # ... with 336,770 more rows

一旦新列被创建，就可以立即使用。例如，可能想知道对gain做时间上的平均：

flights_gain %>% mutate(gain_per_hour = gain / hours)
#> # A tibble: 336,776 x 6
#>   dep_delay arr_delay air_time  gain hours gain_per_hour
#>       <dbl>     <dbl>    <dbl> <dbl> <dbl>         <dbl>
#> 1         2        11      227     9  3.78          2.38
#> 2         4        20      227    16  3.78          4.23
#> 3         2        33      160    31  2.67         11.6 
#> 4        -1       -18      183   -17  3.05         -5.57
#> 5        -6       -25      116   -19  1.93         -9.83
#> 6        -4        12      150    16  2.5           6.4 
#> # ... with 336,770 more rows

以上的数据转换也可以通过mutate()一次完成：

flights %>% 
  select(ends_with("delay"),air_time) %>% 
  mutate(
    gain = arr_delay - dep_delay,
    hours = air_time / 60,
    gain_per_hour = gain/hours)
#> # A tibble: 336,776 x 6
#>   dep_delay arr_delay air_time  gain hours gain_per_hour
#>       <dbl>     <dbl>    <dbl> <dbl> <dbl>         <dbl>
#> 1         2        11      227     9  3.78          2.38
#> 2         4        20      227    16  3.78          4.23
#> 3         2        33      160    31  2.67         11.6 
#> 4        -1       -18      183   -17  3.05         -5.57
#> 5        -6       -25      116   -19  1.93         -9.83
#> 6        -4        12      150    16  2.5           6.4 
#> # ... with 336,770 more rows

如果只想在保留新变量，可以使用transmute()：

flights %>% 
  select(ends_with("delay"),air_time) %>% 
  transmute(
    gain = arr_delay - dep_delay,
    hours = air_time / 60,
    gain_per_hour = gain/hours)
#> # A tibble: 336,776 x 3
#>    gain hours gain_per_hour
#>   <dbl> <dbl>         <dbl>
#> 1     9  3.78          2.38
#> 2    16  3.78          4.23
#> 3    31  2.67         11.6 
#> 4   -17  3.05         -5.57
#> 5   -19  1.93         -9.83
#> 6    16  2.5           6.4 
#> # ... with 336,770 more rows
…
它们都是向量化的，使用所谓的“循环法则(recycling rules)”。如果一个参数比另一个参数短，那么前者会自动扩展到相同的长度，但某个参数是单个数值时，这种方式是最有效的，如air_time * 60 或者 hours * 60 + minute等。

算术运算符的另一个用途是与我们后面将很快学到的聚集函数结合起来使用。例如,x / sum(x)可以计算出x的各个分量在总数中的比例，y - mean(y)计算出y的各个分量与均值之间的差异。

模运算符 %/% 和 % 

%/%（整除）和%%（求余）满足x == y * (x %/% y) + （x %% y, 这两个运算符在Python中分别是// 和 % 。

模运算非常好用，因为它可以拆分整数。例如，在flights数据集中，可以根据dep_time计算出 hour 和 minute：

## air_time中表示时间的方式是“xyz”表示x点yz分
flights %>% 
  transmute(hour = air_time %/% 100,
            minute = air_time %% 100)   
#> # A tibble: 336,776 x 2
#>    hour minute
#>   <dbl>  <dbl>
#> 1     2     27
#> 2     2     27
#> 3     1     60
#> 4     1     83
#> 5     1     16
#> 6     1     50
#> # ... with 336,770 more rows
…
x <- c(1,3,4,5,6,8)
ntile(x,n=2)
#> [1] 1 1 1 2 2 2
ntile(x,n=3)
#> [1] 1 1 2 2 3 3

1.3.3 Exercises

Exercise 1.9  虽然现在的dep_time和sched_dep_time变量方便阅读，但不适合计算，因为它们实际上并不是连续型数值。将它们转换为一种更方便的表示形式，即从 0 点开始的分钟数

# 观察两个变量的存储方式
flights %>% 
  select(dep_time, sched_dep_time)
#> # A tibble: 336,776 x 2
#>   dep_time sched_dep_time
#>      <int>          <int>
#> 1      517            515
#> 2      533            529
#> 3      542            540
#> 4      544            545
#> 5      554            600
#> 6      554            558
#> # ... with 336,770 more rows

xyz 表示 x 点 yz 分，则总分钟数为x %/% 100 * 60 + x %% 100 ; 但有一个问题是，由于 0 点是用2400代表的，经过这样的转换它变为 1440，我们希望它变为 0，所以在外层再套一个%% 1440

flights %>% transmute(
  dep_time_mins = (dep_time %/% 100 * 60 + dep_time %% 100) %% 1440, 
  sched_dep_time_mins = (sched_dep_time %/% 100 * 60 + sched_dep_time %% 100) %% 1440)
#> # A tibble: 336,776 x 2
#>   dep_time_mins sched_dep_time_mins
#>           <dbl>               <dbl>
#> 1           317                 315
#> 2           333                 329
#> 3           342                 340
#> 4           344                 345
#> 5           354                 360
#> 6           354                 358
#> # ... with 336,770 more rows

比较dep_time、sched_dep_time 和 dep_delay，这三者应该是何种关系？

flights_deptime <-
  mutate(flights,
    dep_time_min = (dep_time %/% 100 * 60 + dep_time %% 100) %% 1440,
    sched_dep_time_min = (sched_dep_time %/% 100 * 60 +
                          sched_dep_time %% 100) %% 1440,
    dep_delay_diff = dep_delay - dep_time_min + sched_dep_time_min
  )
filter(flights_deptime, dep_delay_diff != 0) %>% select(dep_delay_diff)
#> # A tibble: 1,236 x 1
#>   dep_delay_diff
#>            <dbl>
#> 1           1440
#> 2           1440
#> 3           1440
#> 4           1440
#> 5           1440
#> 6           1440
#> # ... with 1,230 more rows

如上所示，经过分钟的转换后，有1236行的dep_delay 不等于 dep_time - sched_dep_time. 有趣的是，这些差值全部等于1440。

> the discrepancies could be because a flight was scheduled to depart before midnight, but was delayed after midnight. All of these discrepancies are exactly equal to 1440 (24 hours), and the flights with these discrepancies were scheduled to depart later in the day.

使用排秩函数找出10个出发延误时间最长的航班

## 使min_rank默认小的值获得小的秩，arrange()默认降序排列，其中一个函数中要使用desc()
flights %>% mutate(delay_rank = min_rank(desc(dep_delay))) %>% arrange(delay_rank) %>% select(year,month,day,dep_delay,delay_rank)
#> # A tibble: 336,776 x 5
#>    year month   day dep_delay delay_rank
#>   <int> <int> <int>     <dbl>      <int>
#> 1  2013     1     9      1301          1
#> 2  2013     6    15      1137          2
#> 3  2013     1    10      1126          3
#> 4  2013     9    20      1014          4
#> 5  2013     7    22      1005          5
#> 6  2013     4    10       960          6
#> # ... with 336,770 more rows
…
