5.2 Sorting | R for data science: tidyverse and beyond
…
5.2.3 Sorting manually

fct_infreq() 和 fct_reorder() 排序的依据是明确的，但我们有时也需要人工指定、修改排序结果。fct_relevel()接受一个向量调整因子水平的排序。

这个例子中使用forcats::gss_cat，该数据集是综合社会调查（General Social Survey）的一份抽样。综合社会调查是美国芝加哥大学的独立研究组织 NORC 进行的一项长期美国社会调查

gss_cat
#> # A tibble: 21,483 x 9
#>    year marital      age race  rincome    partyid     relig     denom    tvhours
#>   <int> <fct>      <int> <fct> <fct>      <fct>       <fct>     <fct>      <int>
#> 1  2000 Never mar~    26 White $8000 to ~ Ind,near r~ Protesta~ Souther~      12
#> 2  2000 Divorced      48 White $8000 to ~ Not str re~ Protesta~ Baptist~      NA
#> 3  2000 Widowed       67 White Not appli~ Independent Protesta~ No deno~       2
#> 4  2000 Never mar~    39 White Not appli~ Ind,near r~ Orthodox~ Not app~       4
#> 5  2000 Divorced      25 White Not appli~ Not str de~ None      Not app~       1
#> 6  2000 Married       25 White $20000 - ~ Strong dem~ Protesta~ Souther~      NA
#> # ... with 21,477 more rows
…
