2.2 Comparing tibble and data.frame | R for data science: tidyverse and beyond
…
2.2.2 Printing

tibble 的打印方法进行了优化，只显示前 10 行结果，显示列的数目将自动适应屏幕的宽度，这种打印方式非常适合大数据集。除了打印列名，tibble 还会第一行的下面打印出列的类型，这项功能有些类似于 str() 函数

tibble(
  a = lubridate::now() + runif(1e3) * 96400,
  b = lubridate::today() + runif(1e3) * 30,
  c = 1:1e3,
  d = runif(1e3),
  e = sample(letters,1e3, replace = T)
)
#> # A tibble: 1,000 x 5
#>   a                   b              c     d e    
#>   <dttm>              <date>     <int> <dbl> <chr>
#> 1 2020-04-30 12:00:25 2020-05-01     1 0.392 i    
#> 2 2020-04-30 05:03:59 2020-05-03     2 0.409 p    
#> 3 2020-04-30 00:00:33 2020-05-14     3 0.944 t    
#> 4 2020-04-30 04:45:02 2020-05-23     4 0.614 z    
#> 5 2020-04-30 04:59:41 2020-05-15     5 0.672 f    
#> 6 2020-04-30 05:54:30 2020-05-09     6 0.113 q    
#> # ... with 994 more rows

在打印大数据框时，tibble的这种设计避免了输出一下子占据控制台的很多行。

有时需要比默认显示更多的输出，这是要设置几个参数。

首先，可以明确使用print()函数来打印数据框（实际上是print.tbl())，并控制打印的行数（n）和显示的宽度（width）。width = Inf可以显示出所有列:

nycflights13::flights %>%
  print(n = 10, width = Inf)
#> # A tibble: 336,776 x 19
#>     year month   day dep_time sched_dep_time dep_delay arr_time sched_arr_time
#>    <int> <int> <int>    <int>          <int>     <dbl>    <int>          <int>
#>  1  2013     1     1      517            515         2      830            819
#>  2  2013     1     1      533            529         4      850            830
#>  3  2013     1     1      542            540         2      923            850
#>  4  2013     1     1      544            545        -1     1004           1022
#>  5  2013     1     1      554            600        -6      812            837
#>  6  2013     1     1      554            558        -4      740            728
#>  7  2013     1     1      555            600        -5      913            854
#>  8  2013     1     1      557            600        -3      709            723
#>  9  2013     1     1      557            600        -3      838            846
#> 10  2013     1     1      558            600        -2      753            745
#>    arr_delay carrier flight tailnum origin dest  air_time distance  hour minute
#>        <dbl> <chr>    <int> <chr>   <chr>  <chr>    <dbl>    <dbl> <dbl>  <dbl>
#>  1        11 UA        1545 N14228  EWR    IAH        227     1400     5     15
#>  2        20 UA        1714 N24211  LGA    IAH        227     1416     5     29
#>  3        33 AA        1141 N619AA  JFK    MIA        160     1089     5     40
#>  4       -18 B6         725 N804JB  JFK    BQN        183     1576     5     45
#>  5       -25 DL         461 N668DN  LGA    ATL        116      762     6      0
#>  6        12 UA        1696 N39463  EWR    ORD        150      719     5     58
#>  7        19 B6         507 N516JB  EWR    FLL        158     1065     6      0
#>  8       -14 EV        5708 N829AS  LGA    IAD         53      229     6      0
#>  9        -8 B6          79 N593JB  JFK    MCO        140      944     6      0
#> 10         8 AA         301 N3ALAA  LGA    ORD        138      733     6      0
#>    time_hour          
#>    <dttm>             
#>  1 2013-01-01 05:00:00
#>  2 2013-01-01 05:00:00
#>  3 2013-01-01 05:00:00
#>  4 2013-01-01 05:00:00
#>  5 2013-01-01 06:00:00
#>  6 2013-01-01 05:00:00
#>  7 2013-01-01 06:00:00
#>  8 2013-01-01 06:00:00
#>  9 2013-01-01 06:00:00
#> 10 2013-01-01 06:00:00
#> # ... with 336,766 more rows
…
