6.7 Case Study | R for data science: tidyverse and beyond
…
            R for data science: tidyverse and beyond

6.7 Case Study

To finish off the chapter, let’s pull together everything you’ve learned to tackle a realistic data tidying problem. The tidyr::who dataset contains tuberculosis (TB) cases broken down by year, country, age, gender, and diagnosis method. The data comes from the 2014 World Health Organization Global Tuberculosis Report, available at http://www.who.int/tb/country/data/download/en/.

There’s a wealth of epidemiological information in this dataset, but it’s challenging to work with the data in the form that it’s provided:

who
#> # A tibble: 7,240 x 60
#>   country iso2  iso3   year new_sp_m014 new_sp_m1524 new_sp_m2534 new_sp_m3544
#>   <chr>   <chr> <chr> <int>       <int>        <int>        <int>        <int>
#> 1 Afghan~ AF    AFG    1980          NA           NA           NA           NA
#> 2 Afghan~ AF    AFG    1981          NA           NA           NA           NA
#> 3 Afghan~ AF    AFG    1982          NA           NA           NA           NA
#> 4 Afghan~ AF    AFG    1983          NA           NA           NA           NA
#> 5 Afghan~ AF    AFG    1984          NA           NA           NA           NA
#> 6 Afghan~ AF    AFG    1985          NA           NA           NA           NA
#> # ... with 7,234 more rows, and 52 more variables: new_sp_m4554 <int>,
#> #   new_sp_m5564 <int>, new_sp_m65 <int>, new_sp_f014 <int>,
#> #   new_sp_f1524 <int>, new_sp_f2534 <int>, new_sp_f3544 <int>,
#> #   new_sp_f4554 <int>, new_sp_f5564 <int>, new_sp_f65 <int>,
#> #   new_sn_m014 <int>, new_sn_m1524 <int>, new_sn_m2534 <int>,
#> #   new_sn_m3544 <int>, new_sn_m4554 <int>, new_sn_m5564 <int>,
#> #   new_sn_m65 <int>, new_sn_f014 <int>, new_sn_f1524 <int>,
#> #   new_sn_f2534 <int>, new_sn_f3544 <int>, new_sn_f4554 <int>,
#> #   new_sn_f5564 <int>, new_sn_f65 <int>, new_ep_m014 <int>,
…
* It looks like country, iso2, and iso3 are three variables that redundantly specify the country.

* year is also a variable

* We don’t know what all the other columns are yet, but given the structure in the variable names (e.g. new_sp_m014, new_ep_m014, new_ep_f014) these are likely to be values, not variables.

So we need to pivot all the columns from new_sp_m014 to newrel_f65. We don’t know what those values represent yet, so we’ll give them the generic name "name". We know the cells represent the count of cases, so we’ll use the variable cases. There are a lot of missing values in the current representation, so for now we’ll use values_drop_na = TRUE just so we can focus on the values that are present.

who1 <- who %>% 
  pivot_longer(-(1:4), names_to = "name", values_to = "cases", values_drop_na = TRUE)
#> pivot_longer: reorganized (new_sp_m014, new_sp_m1524, new_sp_m2534, new_sp_m3544, new_sp_m4554, …) into (name, cases) [was 7240x60, now 76046x6]
who1
#> # A tibble: 76,046 x 6
#>   country     iso2  iso3   year name         cases
#>   <chr>       <chr> <chr> <int> <chr>        <int>
#> 1 Afghanistan AF    AFG    1997 new_sp_m014      0
#> 2 Afghanistan AF    AFG    1997 new_sp_m1524    10
#> 3 Afghanistan AF    AFG    1997 new_sp_m2534     6
#> 4 Afghanistan AF    AFG    1997 new_sp_m3544     3
#> 5 Afghanistan AF    AFG    1997 new_sp_m4554     5
#> 6 Afghanistan AF    AFG    1997 new_sp_m5564     2
#> # ... with 76,040 more rows

We can get some hint of the structure of the values in the new name column by counting them:

who1 %>% count(name)
#> count: now 56 rows and 2 columns, ungrouped
#> # A tibble: 56 x 2
#>   name             n
#>   <chr>        <int>
#> 1 new_ep_f014   1032
#> 2 new_ep_f1524  1021
#> 3 new_ep_f2534  1021
#> 4 new_ep_f3544  1021
#> 5 new_ep_f4554  1017
#> 6 new_ep_f5564  1017
#> # ... with 50 more rows
…
* 3544 = 35 – 44 years old

* 4554 = 45 – 54 years old

* 5564 = 55 – 64 years old

* 65 = 65 or older

We need to make a minor fix to the format of the column names: unfortunately the names are slightly inconsistent because instead of new_rel we have newrel (it’s hard to spot this here but if you don’t fix it we’ll get errors in subsequent steps). You’ll learn about str_replace() in strings, but the basic idea is pretty simple: replace the characters “newrel” with “new_rel”. This makes all variable names consistent.

who2 <- who1 %>% 
  mutate(key = stringr::str_replace(name, "newrel", "new_rel"))
#> mutate: new variable 'key' with 56 unique values and 0% NA
who2
#> # A tibble: 76,046 x 7
#>   country     iso2  iso3   year name         cases key         
#>   <chr>       <chr> <chr> <int> <chr>        <int> <chr>       
#> 1 Afghanistan AF    AFG    1997 new_sp_m014      0 new_sp_m014 
#> 2 Afghanistan AF    AFG    1997 new_sp_m1524    10 new_sp_m1524
#> 3 Afghanistan AF    AFG    1997 new_sp_m2534     6 new_sp_m2534
#> 4 Afghanistan AF    AFG    1997 new_sp_m3544     3 new_sp_m3544
#> 5 Afghanistan AF    AFG    1997 new_sp_m4554     5 new_sp_m4554
#> 6 Afghanistan AF    AFG    1997 new_sp_m5564     2 new_sp_m5564
#> # ... with 76,040 more rows

We can separate the values in each code with two passes of extracct()(This can also be done in the previous pivot_longer() step by passing a vector to names_to).

who3 <- who2 %>% 
  extract(name, into = c("type", "sex", "age"),
          regex = "new_(\\w{2,3})_([fm])(\\d+)")

who3
#> # A tibble: 76,046 x 9
#>   country     iso2  iso3   year type  sex   age   cases key         
#>   <chr>       <chr> <chr> <int> <chr> <chr> <chr> <int> <chr>       
#> 1 Afghanistan AF    AFG    1997 sp    m     014       0 new_sp_m014 
#> 2 Afghanistan AF    AFG    1997 sp    m     1524     10 new_sp_m1524
#> 3 Afghanistan AF    AFG    1997 sp    m     2534      6 new_sp_m2534
#> 4 Afghanistan AF    AFG    1997 sp    m     3544      3 new_sp_m3544
#> 5 Afghanistan AF    AFG    1997 sp    m     4554      5 new_sp_m4554
#> 6 Afghanistan AF    AFG    1997 sp    m     5564      2 new_sp_m5564
#> # ... with 76,040 more rows
…
