…
```r
table1
#> # A tibble: 6 x 4
#>   country      year  cases population
#>   <chr>       <int>  <int>      <int>
#> 1 Afghanistan  1999    745   19987071
#> 2 Afghanistan  2000   2666   20595360
#> 3 Brazil       1999  37737  172006362
#> 4 Brazil       2000  80488  174504898
#> 5 China        1999 212258 1272915272
#> 6 China        2000 213766 1280428583
table2
#> # A tibble: 12 x 4
#>   country      year type           count
#>   <chr>       <int> <chr>          <int>
#> 1 Afghanistan  1999 cases            745
#> 2 Afghanistan  1999 population  19987071
#> 3 Afghanistan  2000 cases           2666
#> 4 Afghanistan  2000 population  20595360
#> 5 Brazil       1999 cases          37737
#> 6 Brazil       1999 population 172006362
#> # ... with 6 more rows
…
### Exercises  

\BeginKnitrBlock{exercise}<div class="exercise"><span class="exercise" id="exr:unnamed-chunk-7"><strong>(\#exr:unnamed-chunk-7) </strong></span>用 `table2` 计算发病率 (`rate` = `cases` / `population`), 需要进行以下四步操作：
  * 得到每个国家每年的`cases`  
  * 得到每个国家每年的`population`  
  * 计算 `rate` = `cases` / `population`  
  * 把算好的数据存储到正确的位置 </div>\EndKnitrBlock{exercise}

  
首先，分别对 `cases` 和`population`建立一张表，并且确保两张表的排列顺序相同：  


```r
table2
#> # A tibble: 12 x 4
#>   country      year type           count
#>   <chr>       <int> <chr>          <int>
#> 1 Afghanistan  1999 cases            745
#> 2 Afghanistan  1999 population  19987071
#> 3 Afghanistan  2000 cases           2666
#> 4 Afghanistan  2000 population  20595360
#> 5 Brazil       1999 cases          37737
#> 6 Brazil       1999 population 172006362
#> # ... with 6 more rows
…
`names_to` 和 `values_to` 参数相当于原来 `gather()` 中的 `key` 和 `value`，其中 “键” 列的默认名称变为 “name”   
同理, `names_from` 和 `values_from` 相当于原来 `spread()` 中的 `key` 和 `value`

<img src="images/gather-spread.gif" style="display: block; margin: auto;" />



### `pivot_longer()`  

`tidyr::relig_income` 是一个典型的宽数据，除第一列以外的所有列表示收入的不同水平，值表示对应的人数：


```r
relig_income 
#> # A tibble: 18 x 11
#>   religion `<$10k` `$10-20k` `$20-30k` `$30-40k` `$40-50k` `$50-75k` `$75-100k`
#>   <chr>      <dbl>     <dbl>     <dbl>     <dbl>     <dbl>     <dbl>      <dbl>
#> 1 Agnostic      27        34        60        81        76       137        122
#> 2 Atheist       12        27        37        52        35        70         73
#> 3 Buddhist      27        21        30        34        33        58         62
#> 4 Catholic     418       617       732       670       638      1116        949
#> 5 Don’t k~      15        14        15        11        10        35         21
#> 6 Evangel~     575       869      1064       982       881      1486        949
#> # ... with 12 more rows, and 3 more variables: `$100-150k` <dbl>,
#> #   `>150k` <dbl>, `Don't know/refused` <dbl>
relig_income %>% pivot_longer(-religion, 
                              names_to = "income", 
                              values_to = "population")
#> pivot_longer: reorganized (<$10k, $10-20k, $20-30k, $30-40k, $40-50k, …) into (income, population) [was 18x11, now 180x3]
#> # A tibble: 180 x 3
#>   religion income  population
#>   <chr>    <chr>        <dbl>
#> 1 Agnostic <$10k           27
#> 2 Agnostic $10-20k         34
#> 3 Agnostic $20-30k         60
#> 4 Agnostic $30-40k         81
#> 5 Agnostic $40-50k         76
#> 6 Agnostic $50-75k        137
#> # ... with 174 more rows
```
…
```r
ec2 <- economics %>% as_tibble() %>%
  transmute(year =  year(date),
            month = month(date),
            rate = unemploy) %>%
  filter(year > 2005) %>% 
  pivot_wider(names_from = "month", values_from = "rate")
#> transmute: dropped 6 variables (date, pce, pop, psavert, uempmed, …)
#>            new variable 'year' with 49 unique values and 0% NA
#>            new variable 'month' with 12 unique values and 0% NA
#>            new variable 'rate' with 550 unique values and 0% NA
#> filter: removed 462 rows (80%), 112 rows remaining
#> pivot_wider: reorganized (month, rate) into (1, 2, 3, 4, 5, …) [was 112x3, now 10x13]
ec2
#> # A tibble: 10 x 13
#>    year   `1`   `2`   `3`   `4`   `5`   `6`   `7`   `8`   `9`  `10`  `11`  `12`
#>   <dbl> <dbl> <dbl> <dbl> <dbl> <dbl> <dbl> <dbl> <dbl> <dbl> <dbl> <dbl> <dbl>
#> 1  2006  7064  7184  7072  7120  6980  7001  7175  7091  6847  6727  6872  6762
#> 2  2007  7116  6927  6731  6850  6766  6979  7149  7067  7170  7237  7240  7645
#> 3  2008  7685  7497  7822  7637  8395  8575  8937  9438  9494 10074 10538 11286
#> 4  2009 12058 12898 13426 13853 14499 14707 14601 14814 15009 15352 15219 15098
#> 5  2010 15046 15113 15202 15325 14849 14474 14512 14648 14579 14516 15081 14348
#> 6  2011 14013 13820 13737 13957 13855 13962 13763 13818 13948 13594 13302 13093
#> # ... with 4 more rows
```

化宽为长：  


```r
ec2 %>% 
  pivot_longer(-year, names_to = "month", values_to = "value")
#> pivot_longer: reorganized (1, 2, 3, 4, 5, …) into (month, value) [was 10x13, now 120x3]
#> # A tibble: 120 x 3
#>    year month value
#>   <dbl> <chr> <dbl>
#> 1  2006 1      7064
#> 2  2006 2      7184
#> 3  2006 3      7072
#> 4  2006 4      7120
#> 5  2006 5      6980
#> 6  2006 6      7001
#> # ... with 114 more rows
```

以上就是 `pviot_longer` 的基本用法，下面来处理一些更复杂的情况。  


#### Numeric data in column names

`pivot_longer()` 提供了 `names_ptype` 和 `values_ptypes` 调整数据集变长后键列和值列的数据类型。看一下 `billboard` 数据集：  


```r
billboard
#> # A tibble: 317 x 79
#>   artist track date.entered   wk1   wk2   wk3   wk4   wk5   wk6   wk7   wk8
#>   <chr>  <chr> <date>       <dbl> <dbl> <dbl> <dbl> <dbl> <dbl> <dbl> <dbl>
#> 1 2 Pac  Baby~ 2000-02-26      87    82    72    77    87    94    99    NA
#> 2 2Ge+h~ The ~ 2000-09-02      91    87    92    NA    NA    NA    NA    NA
#> 3 3 Doo~ Kryp~ 2000-04-08      81    70    68    67    66    57    54    53
#> 4 3 Doo~ Loser 2000-10-21      76    76    72    69    67    65    55    59
#> 5 504 B~ Wobb~ 2000-04-15      57    34    25    17    17    31    36    49
#> 6 98^0   Give~ 2000-08-19      51    39    34    26    26    19     2     2
#> # ... with 311 more rows, and 68 more variables: wk9 <dbl>, wk10 <dbl>,
#> #   wk11 <dbl>, wk12 <dbl>, wk13 <dbl>, wk14 <dbl>, wk15 <dbl>, wk16 <dbl>,
#> #   wk17 <dbl>, wk18 <dbl>, wk19 <dbl>, wk20 <dbl>, wk21 <dbl>, wk22 <dbl>,
#> #   wk23 <dbl>, wk24 <dbl>, wk25 <dbl>, wk26 <dbl>, wk27 <dbl>, wk28 <dbl>,
#> #   wk29 <dbl>, wk30 <dbl>, wk31 <dbl>, wk32 <dbl>, wk33 <dbl>, wk34 <dbl>,
#> #   wk35 <dbl>, wk36 <dbl>, wk37 <dbl>, wk38 <dbl>, wk39 <dbl>, wk40 <dbl>,
#> #   wk41 <dbl>, wk42 <dbl>, wk43 <dbl>, wk44 <dbl>, wk45 <dbl>, wk46 <dbl>,
#> #   wk47 <dbl>, wk48 <dbl>, wk49 <dbl>, wk50 <dbl>, wk51 <dbl>, wk52 <dbl>,
#> #   wk53 <dbl>, wk54 <dbl>, wk55 <dbl>, wk56 <dbl>, wk57 <dbl>, wk58 <dbl>,
…
```r
billboard_tidy <- billboard %>% 
  pivot_longer(cols = starts_with("wk"),
               names_to = "week",
               values_to = "rank",
               names_prefix = "wk",
               names_ptypes = list(week = integer()),
               values_drop_na = T)
#> pivot_longer: reorganized (wk1, wk2, wk3, wk4, wk5, …) into (week, rank) [was 317x79, now 5307x5]
```


```r
billboard_tidy
#> # A tibble: 5,307 x 5
#>   artist track                   date.entered  week  rank
#>   <chr>  <chr>                   <date>       <int> <dbl>
#> 1 2 Pac  Baby Don't Cry (Keep... 2000-02-26       1    87
#> 2 2 Pac  Baby Don't Cry (Keep... 2000-02-26       2    82
#> 3 2 Pac  Baby Don't Cry (Keep... 2000-02-26       3    72
#> 4 2 Pac  Baby Don't Cry (Keep... 2000-02-26       4    77
#> 5 2 Pac  Baby Don't Cry (Keep... 2000-02-26       5    87
#> 6 2 Pac  Baby Don't Cry (Keep... 2000-02-26       6    94
#> # ... with 5,301 more rows
```


`names_prefix` 去除前缀 "wk"(否则无法从字符串转换为数值)，`names_ptype` 以列表的形式转换键列的数据类型。同理, `values_ptype` 可以转换值列的数据类型。  


```r
## 计算保持周数
billboard_tidy %>% 
  group_by(track) %>% 
  summarise(stay = max(week) - min(week) + 1) %>% 
  arrange(desc(stay))
#> group_by: one grouping variable (track)
#> summarise: now 316 rows and 2 columns, ungrouped
#> # A tibble: 316 x 2
#>   track                stay
#>   <chr>               <dbl>
#> 1 Higher                 65
#> 2 Amazed                 64
#> 3 Breathe                53
#> 4 Kryptonite             53
#> 5 With Arms Wide Open    47
#> 6 I Wanna Know           44
#> # ... with 310 more rows
```


#### Many variables in column names

在 tidyr 1.0.0 之前，当进行一定处理后发现多个变量被糅合到一列中时，可能会考虑使用 `separate()` 或者 `extract()`:   


```r
who
#> # A tibble: 7,240 x 60
#>   country iso2  iso3   year new_sp_m014 new_sp_m1524 new_sp_m2534 new_sp_m3544
#>   <chr>   <chr> <chr> <int>       <int>        <int>        <int>        <int>
#> 1 Afghan~ AF    AFG    1980          NA           NA           NA           NA
#> 2 Afghan~ AF    AFG    1981          NA           NA           NA           NA
#> 3 Afghan~ AF    AFG    1982          NA           NA           NA           NA
#> 4 Afghan~ AF    AFG    1983          NA           NA           NA           NA
#> 5 Afghan~ AF    AFG    1984          NA           NA           NA           NA
#> 6 Afghan~ AF    AFG    1985          NA           NA           NA           NA
#> # ... with 7,234 more rows, and 52 more variables: new_sp_m4554 <int>,
#> #   new_sp_m5564 <int>, new_sp_m65 <int>, new_sp_f014 <int>,
#> #   new_sp_f1524 <int>, new_sp_f2534 <int>, new_sp_f3544 <int>,
#> #   new_sp_f4554 <int>, new_sp_f5564 <int>, new_sp_f65 <int>,
#> #   new_sn_m014 <int>, new_sn_m1524 <int>, new_sn_m2534 <int>,
#> #   new_sn_m3544 <int>, new_sn_m4554 <int>, new_sn_m5564 <int>,
#> #   new_sn_m65 <int>, new_sn_f014 <int>, new_sn_f1524 <int>,
#> #   new_sn_f2534 <int>, new_sn_f3544 <int>, new_sn_f4554 <int>,
#> #   new_sn_f5564 <int>, new_sn_f65 <int>, new_ep_m014 <int>,
…
#> #   newrel_m2534 <int>, newrel_m3544 <int>, newrel_m4554 <int>,
#> #   newrel_m5564 <int>, newrel_m65 <int>, newrel_f014 <int>,
#> #   newrel_f1524 <int>, newrel_f2534 <int>, newrel_f3544 <int>,
#> #   newrel_f4554 <int>, newrel_f5564 <int>, newrel_f65 <int>
## 原书 tidyr 一章中使用的方法
who %>% 
  gather(starts_with("new"), 
         key = key, 
         value = value,
         na.rm = T) %>% 
  extract(key,
          into = c("diagnosis", "gender", "age"),
          regex = "new_?(.*)_(.)(.*)")
#> gather: reorganized (new_sp_m014, new_sp_m1524, new_sp_m2534, new_sp_m3544, new_sp_m4554, …) into (key, value) [was 7240x60, now 76046x6]
#> # A tibble: 76,046 x 8
#>   country     iso2  iso3   year diagnosis gender age   value
#>   <chr>       <chr> <chr> <int> <chr>     <chr>  <chr> <int>
#> 1 Afghanistan AF    AFG    1997 sp        m      014       0
#> 2 Afghanistan AF    AFG    1998 sp        m      014      30
#> 3 Afghanistan AF    AFG    1999 sp        m      014       8
#> 4 Afghanistan AF    AFG    2000 sp        m      014      52
#> 5 Afghanistan AF    AFG    2001 sp        m      014     129
#> 6 Afghanistan AF    AFG    2002 sp        m      014      90
#> # ... with 76,040 more rows
```

现在，`pivot_longer()` 现在可以在化宽为长的下一步直接完成拆分任务，可以直接在 `names_to` 中传入一个向量表示分裂后的各个键列，并在 `names_sep`(分隔符) 或者 `names_pattern` 中(正则表达式)指定分裂的模式：  


```r
who %>% 
  pivot_longer(starts_with("new"),
               names_to = c("diagonosis", "gender", "age"),
               names_pattern = "new_?(.*)_(.)(.*)",
               values_to = "count",
               values_drop_na = T)
#> pivot_longer: reorganized (new_sp_m014, new_sp_m1524, new_sp_m2534, new_sp_m3544, new_sp_m4554, …) into (diagonosis, gender, age, count) [was 7240x60, now 76046x8]
#> # A tibble: 76,046 x 8
#>   country     iso2  iso3   year diagonosis gender age   count
#>   <chr>       <chr> <chr> <int> <chr>      <chr>  <chr> <int>
#> 1 Afghanistan AF    AFG    1997 sp         m      014       0
#> 2 Afghanistan AF    AFG    1997 sp         m      1524     10
#> 3 Afghanistan AF    AFG    1997 sp         m      2534      6
#> 4 Afghanistan AF    AFG    1997 sp         m      3544      3
#> 5 Afghanistan AF    AFG    1997 sp         m      4554      5
#> 6 Afghanistan AF    AFG    1997 sp         m      5564      2
#> # ... with 76,040 more rows
```
…
```r
who %>% 
  pivot_longer(cols = starts_with("new"),
               names_to = c("diagonosis", "gender", "age"),
               names_pattern = "new_?(.*)_(.)(.*)",
               names_ptypes = list(
                 gender = factor(levels = c("f", "m")),
                 age = factor(
                        levels = c("014", "1524", "2534", "3544", "4554", "5564", "65"), 
                        ordered = TRUE)
               ),
               values_to = "count",
               values_drop_na = T)
#> pivot_longer: reorganized (new_sp_m014, new_sp_m1524, new_sp_m2534, new_sp_m3544, new_sp_m4554, …) into (diagonosis, gender, age, count) [was 7240x60, now 76046x8]
#> # A tibble: 76,046 x 8
#>   country     iso2  iso3   year diagonosis gender age   count
#>   <chr>       <chr> <chr> <int> <chr>      <fct>  <ord> <int>
#> 1 Afghanistan AF    AFG    1997 sp         m      014       0
#> 2 Afghanistan AF    AFG    1997 sp         m      1524     10
#> 3 Afghanistan AF    AFG    1997 sp         m      2534      6
#> 4 Afghanistan AF    AFG    1997 sp         m      3544      3
#> 5 Afghanistan AF    AFG    1997 sp         m      4554      5
#> 6 Afghanistan AF    AFG    1997 sp         m      5564      2
#> # ... with 76,040 more rows
```
…
Note that we have two pieces of information (or values) for each child: their `gender` and their `dob` (date of birth). These need to go into separate columns in the result. Again we supply multiple variables to `names_to`, using `names_sep` to split up each variable name. Note the special name `.value`: this tells `pivot_longer()` that that part of the column name specifies the “value” being measured (which will become a variable in the output)  

`.value` 在这里指代 `dob` 和 `gender` 两个值列

```r
family %>% 
  pivot_longer(
    -family, 
    names_to = c(".value", "child"),   ## child 为每个 family 中的标识变量
    names_sep = "_", 
    values_drop_na = TRUE
  )
#> pivot_longer: reorganized (dob_child1, dob_child2, gender_child1, gender_child2) into (child, dob, gender) [was 5x5, now 9x4]
#> # A tibble: 9 x 4
#>   family child  dob        gender
#>    <int> <chr>  <date>      <int>
#> 1      1 child1 1998-11-26      1
#> 2      1 child2 2000-01-29      2
#> 3      2 child1 1996-06-22      2
#> 4      3 child1 2002-07-11      2
#> 5      3 child2 2004-04-05      2
#> 6      4 child1 2004-10-10      1
#> # ... with 3 more rows
```
…
#> 3  13 13 13  8  7.58 8.74 12.74  7.71
#> 4   9  9  9  8  8.81 8.77  7.11  8.84
#> 5  11 11 11  8  8.33 9.26  7.81  8.47
#> 6  14 14 14  8  9.96 8.10  8.84  7.04
#> 7   6  6  6  8  7.24 6.13  6.08  5.25
#> 8   4  4  4 19  4.26 3.10  5.39 12.50
#> 9  12 12 12  8 10.84 9.13  8.15  5.56
#> 10  7  7  7  8  4.82 7.26  6.42  7.91
#> 11  5  5  5  8  5.68 4.74  5.73  6.89
anscombe %>% 
  pivot_longer(everything(),
               names_to = c(".value", "set"),
               names_pattern = "([xy])([1234])")
#> pivot_longer: reorganized (x1, x2, x3, x4, y1, …) into (set, x, y) [was 11x8, now 44x3]
#> # A tibble: 44 x 3
#>   set       x     y
#>   <chr> <dbl> <dbl>
#> 1 1        10  8.04
#> 2 2        10  9.14
#> 3 3        10  7.46
#> 4 4         8  6.58
#> 5 1         8  6.95
#> 6 2         8  8.14
#> # ... with 38 more rows
```
…
```r
pnl %>% 
  pivot_longer(-(x:b),
               names_to = c(".value", "time"),
               names_pattern = "([yz])([12])")
#> pivot_longer: reorganized (y1, y2, z1, z2) into (time, y, z) [was 4x7, now 8x6]
#> # A tibble: 8 x 6
#>       x     a     b time        y     z
#>   <int> <dbl> <dbl> <chr>   <dbl> <dbl>
#> 1     1     1     0 1      0.788      3
#> 2     1     1     0 2     -1.59      -2
#> 3     2     1     1 1     -0.422      3
#> 4     2     1     1 2      0.597     -2
#> 5     3     0     1 1      0.0569     3
#> 6     3     0     1 2      1.22      -2
#> # ... with 2 more rows
```
…
```r
df %>% 
  pivot_longer(-x, names_to = "y")
#> pivot_longer: reorganized () into (.copy, value) [was 3x4, now 9x4]
#> # A tibble: 9 x 4
#>       x y     .copy value
#>   <int> <chr> <int> <int>
#> 1     1 y         1     4
#> 2     1 y         2     5
#> 3     1 y         3     7
#> 4     2 y         1     5
#> 5     2 y         2     6
#> 6     2 y         3     8
#> # ... with 3 more rows
```

### `pivot_wider()`

`pivot_wider()` 是 `pivot_longer()` 的逆操作，虽然在获得 tidy data 上，前者没有后者常用，但它经常被用来创建一些 summary table。  

`fish_encounters` 数据记录了一些沿河观测站对一批鱼群的观测情况(`seen` 为发现次数)：


```r
fish_encounters
#> # A tibble: 114 x 3
#>   fish  station  seen
#>   <fct> <fct>   <int>
#> 1 4842  Release     1
#> 2 4842  I80_1       1
#> 3 4842  Lisbon      1
#> 4 4842  Rstr        1
#> 5 4842  Base_TD     1
#> 6 4842  BCE         1
#> # ... with 108 more rows
```

很多后续分析工具需要每个观测站的观测情况单独成一列，使用 `pivot_wider()`:  


```r
# 数据中已有的列不需要引号便可引用
fish_encounters %>% 
  pivot_wider(names_from = station, values_from = seen)
#> pivot_wider: reorganized (station, seen) into (Release, I80_1, Lisbon, Rstr, Base_TD, …) [was 114x3, now 19x12]
#> # A tibble: 19 x 12
#>   fish  Release I80_1 Lisbon  Rstr Base_TD   BCE   BCW  BCE2  BCW2   MAE   MAW
#>   <fct>   <int> <int>  <int> <int>   <int> <int> <int> <int> <int> <int> <int>
#> 1 4842        1     1      1     1       1     1     1     1     1     1     1
#> 2 4843        1     1      1     1       1     1     1     1     1     1     1
#> 3 4844        1     1      1     1       1     1     1     1     1     1     1
#> 4 4845        1     1      1     1       1    NA    NA    NA    NA    NA    NA
#> 5 4847        1     1      1    NA      NA    NA    NA    NA    NA    NA    NA
#> 6 4848        1     1      1     1      NA    NA    NA    NA    NA    NA    NA
#> # ... with 13 more rows
```

关于 `pivot_wider()`，很重要的一点是它会暴露出数据中的隐式缺失值(implicit missing value)。这些没有出现在原数据中的 NA 值不是源自于记录错误或者遗失，只是没有对应的观测而已（观测站只能记录发生了的观测）。参数 **values_fill** 可以以一个列表填充 `pivot_wider()` 结果中的 NA， 当然如何处理这些隐式缺失值要按具体情境而定，在鱼群的例子里，用 0 填充是合适的：  


```r
fish_encounters %>% 
  pivot_wider(names_from = station, values_from = seen,
              values_fill = list(seen = 0))
#> pivot_wider: reorganized (station, seen) into (Release, I80_1, Lisbon, Rstr, Base_TD, …) [was 114x3, now 19x12]
#> # A tibble: 19 x 12
#>   fish  Release I80_1 Lisbon  Rstr Base_TD   BCE   BCW  BCE2  BCW2   MAE   MAW
#>   <fct>   <int> <int>  <int> <int>   <int> <int> <int> <int> <int> <int> <int>
#> 1 4842        1     1      1     1       1     1     1     1     1     1     1
#> 2 4843        1     1      1     1       1     1     1     1     1     1     1
#> 3 4844        1     1      1     1       1     1     1     1     1     1     1
#> 4 4845        1     1      1     1       1     0     0     0     0     0     0
#> 5 4847        1     1      1     0       0     0     0     0     0     0     0
#> 6 4848        1     1      1     1       0     0     0     0     0     0     0
#> # ... with 13 more rows
```

\BeginKnitrBlock{todo}<div class="todo">`fish_encoutners` 的贡献者 [Myfanwy Johnston](https://fishsciences.github.io/post/visualizing-fish-encounter-histories/) 在个人网站上有一篇相关的文章  </div>\EndKnitrBlock{todo}

#### Aggregation  

`pivot_wider()` 可以用来执行一些简单的聚合操作。`warpbreaks` 是一个关于经纱强度的控制试验，每个处理 `(wool, tension)` 上进行了 9 次试验：


```r
(warpbreaks <- warpbreaks %>% as_tibble() %>% select(wool, tension, breaks))
#> select: columns reordered (wool, tension, breaks)
#> # A tibble: 54 x 3
#>   wool  tension breaks
#>   <fct> <fct>    <dbl>
#> 1 A     L           26
#> 2 A     L           30
#> 3 A     L           54
#> 4 A     L           25
#> 5 A     L           70
#> 6 A     L           52
#> # ... with 48 more rows
…
