6.1 Tidy data | R for data science: tidyverse and beyond
…
同样的数据可以有不同的表现形式，但只有满足整洁数据的三个条件的数据集才是最容易使用的。以下的 3 个数据集背后的均来自1999年和2000年世界卫生组织在阿富汗、巴西和中国的一次肺结核病例调查，都有 country、year、cases 和 population四个变量，但采用了不同的组织方式:

table1
#> # A tibble: 6 x 4
#>   country      year  cases population
#>   <chr>       <int>  <int>      <int>
#> 1 Afghanistan  1999    745   19987071
#> 2 Afghanistan  2000   2666   20595360
#> 3 Brazil       1999  37737  172006362
#> 4 Brazil       2000  80488  174504898
#> 5 China        1999 212258 1272915272
#> 6 China        2000 213766 1280428583
table2
#> # A tibble: 12 x 4
#>   country      year type           count
#>   <chr>       <int> <chr>          <int>
#> 1 Afghanistan  1999 cases            745
#> 2 Afghanistan  1999 population  19987071
#> 3 Afghanistan  2000 cases           2666
#> 4 Afghanistan  2000 population  20595360
#> 5 Brazil       1999 cases          37737
#> 6 Brazil       1999 population 172006362
#> # ... with 6 more rows
…
6.1.1 Exercises

Exercise 6.1  用 table2 计算发病率 (rate = cases / population), 需要进行以下四步操作：
* 得到每个国家每年的cases

* 得到每个国家每年的population

* 计算 rate = cases / population

* 把算好的数据存储到正确的位置

首先，分别对 cases 和population建立一张表，并且确保两张表的排列顺序相同：

table2
#> # A tibble: 12 x 4
#>   country      year type           count
#>   <chr>       <int> <chr>          <int>
#> 1 Afghanistan  1999 cases            745
#> 2 Afghanistan  1999 population  19987071
#> 3 Afghanistan  2000 cases           2666
#> 4 Afghanistan  2000 population  20595360
#> 5 Brazil       1999 cases          37737
#> 6 Brazil       1999 population 172006362
#> # ... with 6 more rows
…
