4.3 Time span | R for data science: tidyverse and beyond
…
leap + years(c(-1, 1))
#> [1] NA NA
leap %m+% years(c(-1, 1))
#> [1] "2019-02-28" "2021-02-28"

下面我们使用 Periods 来解决与航班日期有关的一个怪现象。有些飞机似乎从纽约市起飞前就到达了目的地：

flights_dt %>%
  filter(arr_time < dep_time) %>%
  select(arr_time, dep_time)
#> # A tibble: 10,633 x 2
#>   arr_time            dep_time           
#>   <dttm>              <dttm>             
#> 1 2013-01-01 00:03:00 2013-01-01 19:29:00
#> 2 2013-01-01 00:29:00 2013-01-01 19:39:00
#> 3 2013-01-01 00:08:00 2013-01-01 20:58:00
#> 4 2013-01-01 01:46:00 2013-01-01 21:02:00
#> 5 2013-01-01 00:25:00 2013-01-01 21:08:00
#> 6 2013-01-01 00:16:00 2013-01-01 21:20:00
#> # ... with 10,627 more rows
…
